%YAML 1.1
%TAG !u! tag:unity3d.com,2011:
--- !u!29 &1
OcclusionCullingSettings:
  m_ObjectHideFlags: 0
  serializedVersion: 2
  m_OcclusionBakeSettings:
    smallestOccluder: 5
    smallestHole: 0.25
    backfaceThreshold: 100
  m_SceneGUID: 00000000000000000000000000000000
  m_OcclusionCullingData: {fileID: 0}
--- !u!104 &2
RenderSettings:
  m_ObjectHideFlags: 0
  serializedVersion: 8
  m_Fog: 0
  m_FogColor: {r: 0.5, g: 0.5, b: 0.5, a: 1}
  m_FogMode: 3
  m_FogDensity: 0.01
  m_LinearFogStart: 0
  m_LinearFogEnd: 300
  m_AmbientSkyColor: {r: 0.212, g: 0.227, b: 0.259, a: 1}
  m_AmbientEquatorColor: {r: 0.114, g: 0.125, b: 0.133, a: 1}
  m_AmbientGroundColor: {r: 0.047, g: 0.043, b: 0.035, a: 1}
  m_AmbientIntensity: 1
  m_AmbientMode: 0
  m_SubtractiveShadowColor: {r: 0.42, g: 0.478, b: 0.627, a: 1}
  m_SkyboxMaterial: {fileID: 10304, guid: 0000000000000000f000000000000000, type: 0}
  m_HaloStrength: 0.5
  m_FlareStrength: 1
  m_FlareFadeSpeed: 3
  m_HaloTexture: {fileID: 0}
  m_SpotCookie: {fileID: 10001, guid: 0000000000000000e000000000000000, type: 0}
  m_DefaultReflectionMode: 0
  m_DefaultReflectionResolution: 128
  m_ReflectionBounces: 1
  m_ReflectionIntensity: 1
  m_CustomReflection: {fileID: 0}
  m_Sun: {fileID: 0}
  m_IndirectSpecularColor: {r: 0, g: 0, b: 0, a: 1}
--- !u!157 &4
LightmapSettings:
  m_ObjectHideFlags: 0
  serializedVersion: 11
  m_GIWorkflowMode: 0
  m_GISettings:
    serializedVersion: 2
    m_BounceScale: 1
    m_IndirectOutputScale: 1
    m_AlbedoBoost: 1
    m_TemporalCoherenceThreshold: 1
    m_EnvironmentLightingMode: 0
    m_EnableBakedLightmaps: 1
    m_EnableRealtimeLightmaps: 1
  m_LightmapEditorSettings:
    serializedVersion: 9
    m_Resolution: 2
    m_BakeResolution: 40
    m_TextureWidth: 1024
    m_TextureHeight: 1024
    m_AO: 0
    m_AOMaxDistance: 1
    m_CompAOExponent: 0
    m_CompAOExponentDirect: 0
    m_Padding: 2
    m_LightmapParameters: {fileID: 0}
    m_LightmapsBakeMode: 1
    m_TextureCompression: 1
    m_FinalGather: 0
    m_FinalGatherFiltering: 1
    m_FinalGatherRayCount: 1024
    m_ReflectionCompression: 2
    m_MixedBakeMode: 1
    m_BakeBackend: 0
    m_PVRSampling: 1
    m_PVRDirectSampleCount: 32
    m_PVRSampleCount: 500
    m_PVRBounces: 2
    m_PVRFilterTypeDirect: 0
    m_PVRFilterTypeIndirect: 0
    m_PVRFilterTypeAO: 0
    m_PVRFilteringMode: 0
    m_PVRCulling: 1
    m_PVRFilteringGaussRadiusDirect: 1
    m_PVRFilteringGaussRadiusIndirect: 5
    m_PVRFilteringGaussRadiusAO: 2
    m_PVRFilteringAtrousPositionSigmaDirect: 0.5
    m_PVRFilteringAtrousPositionSigmaIndirect: 2
    m_PVRFilteringAtrousPositionSigmaAO: 1
    m_ShowResolutionOverlay: 1
  m_LightingDataAsset: {fileID: 0}
  m_UseShadowmask: 0
--- !u!196 &5
NavMeshSettings:
  serializedVersion: 2
  m_ObjectHideFlags: 0
  m_BuildSettings:
    serializedVersion: 2
    agentTypeID: 0
    agentRadius: 0.5
    agentHeight: 2
    agentSlope: 45
    agentClimb: 0.4
    ledgeDropHeight: 0
    maxJumpAcrossDistance: 0
    minRegionArea: 2
    manualCellSize: 0
    cellSize: 0.16666667
    manualTileSize: 0
    tileSize: 256
    accuratePlacement: 0
    debug:
      m_Flags: 0
  m_NavMeshData: {fileID: 0}
--- !u!1 &34101309
GameObject:
  m_ObjectHideFlags: 0
  m_PrefabParentObject: {fileID: 167658, guid: b58c19bae463ca24d82249908693d5c8, type: 2}
  m_PrefabInternal: {fileID: 289978213}
  serializedVersion: 5
  m_Component:
  - component: {fileID: 34101310}
  - component: {fileID: 34101312}
  - component: {fileID: 34101311}
  m_Layer: 5
  m_Name: Image
  m_TagString: Untagged
  m_Icon: {fileID: 0}
  m_NavMeshLayer: 0
  m_StaticEditorFlags: 0
  m_IsActive: 1
--- !u!224 &34101310
RectTransform:
  m_ObjectHideFlags: 0
  m_PrefabParentObject: {fileID: 22467658, guid: b58c19bae463ca24d82249908693d5c8,
    type: 2}
  m_PrefabInternal: {fileID: 289978213}
  m_GameObject: {fileID: 34101309}
  m_LocalRotation: {x: 0, y: 0, z: 0, w: 1}
  m_LocalPosition: {x: 0, y: 0, z: 0}
  m_LocalScale: {x: 1, y: 1, z: 1}
  m_Children: []
  m_Father: {fileID: 1257908685}
  m_RootOrder: 0
  m_LocalEulerAnglesHint: {x: 0, y: 0, z: 0}
  m_AnchorMin: {x: 0.5, y: 0.5}
  m_AnchorMax: {x: 0.5, y: 0.5}
  m_AnchoredPosition: {x: 26, y: 0}
  m_SizeDelta: {x: 1123, y: 749}
  m_Pivot: {x: 0.5, y: 0.5}
--- !u!114 &34101311
MonoBehaviour:
  m_ObjectHideFlags: 0
  m_PrefabParentObject: {fileID: 11467660, guid: b58c19bae463ca24d82249908693d5c8,
    type: 2}
  m_PrefabInternal: {fileID: 289978213}
  m_GameObject: {fileID: 34101309}
  m_Enabled: 1
  m_EditorHideFlags: 0
  m_Script: {fileID: -765806418, guid: f5f67c52d1564df4a8936ccd202a3bd8, type: 3}
  m_Name: 
  m_EditorClassIdentifier: 
  m_Material: {fileID: 0}
  m_Color: {r: 1, g: 1, b: 1, a: 1}
  m_RaycastTarget: 1
  m_OnCullStateChanged:
    m_PersistentCalls:
      m_Calls: []
    m_TypeName: UnityEngine.UI.MaskableGraphic+CullStateChangedEvent, UnityEngine.UI,
      Version=1.0.0.0, Culture=neutral, PublicKeyToken=null
  m_Sprite: {fileID: 21300000, guid: ec204ee652024464294f15e766a1bd2c, type: 3}
  m_Type: 0
  m_PreserveAspect: 0
  m_FillCenter: 1
  m_FillMethod: 4
  m_FillAmount: 1
  m_FillClockwise: 1
  m_FillOrigin: 0
--- !u!222 &34101312
CanvasRenderer:
  m_ObjectHideFlags: 0
  m_PrefabParentObject: {fileID: 22267658, guid: b58c19bae463ca24d82249908693d5c8,
    type: 2}
  m_PrefabInternal: {fileID: 289978213}
  m_GameObject: {fileID: 34101309}
--- !u!1 &130536035
GameObject:
  m_ObjectHideFlags: 0
  m_PrefabParentObject: {fileID: 167646, guid: b58c19bae463ca24d82249908693d5c8, type: 2}
  m_PrefabInternal: {fileID: 289978213}
  serializedVersion: 5
  m_Component:
  - component: {fileID: 130536036}
  - component: {fileID: 130536038}
  - component: {fileID: 130536037}
  m_Layer: 5
  m_Name: AppTitle
  m_TagString: Untagged
  m_Icon: {fileID: 0}
  m_NavMeshLayer: 0
  m_StaticEditorFlags: 0
  m_IsActive: 1
--- !u!224 &130536036
RectTransform:
  m_ObjectHideFlags: 0
  m_PrefabParentObject: {fileID: 22467646, guid: b58c19bae463ca24d82249908693d5c8,
    type: 2}
  m_PrefabInternal: {fileID: 289978213}
  m_GameObject: {fileID: 130536035}
  m_LocalRotation: {x: 0, y: 0, z: 0, w: 1}
  m_LocalPosition: {x: 0, y: 0, z: 0}
  m_LocalScale: {x: 1, y: 1, z: 1}
  m_Children: []
  m_Father: {fileID: 1730031901}
  m_RootOrder: 0
  m_LocalEulerAnglesHint: {x: 0, y: 0, z: 0}
  m_AnchorMin: {x: 0.5, y: 0.5}
  m_AnchorMax: {x: 0.5, y: 0.5}
  m_AnchoredPosition: {x: -0.00011635, y: -77}
  m_SizeDelta: {x: 695, y: 109}
  m_Pivot: {x: 0.5, y: 0.5}
--- !u!114 &130536037
MonoBehaviour:
  m_ObjectHideFlags: 0
  m_PrefabParentObject: {fileID: 11467646, guid: b58c19bae463ca24d82249908693d5c8,
    type: 2}
  m_PrefabInternal: {fileID: 289978213}
  m_GameObject: {fileID: 130536035}
  m_Enabled: 1
  m_EditorHideFlags: 0
  m_Script: {fileID: 708705254, guid: f5f67c52d1564df4a8936ccd202a3bd8, type: 3}
  m_Name: 
  m_EditorClassIdentifier: 
  m_Material: {fileID: 0}
  m_Color: {r: 0.85490197, g: 0.85490197, b: 0.85490197, a: 1}
  m_RaycastTarget: 1
  m_OnCullStateChanged:
    m_PersistentCalls:
      m_Calls: []
    m_TypeName: UnityEngine.UI.MaskableGraphic+CullStateChangedEvent, UnityEngine.UI,
      Version=1.0.0.0, Culture=neutral, PublicKeyToken=null
  m_FontData:
    m_Font: {fileID: 12800000, guid: 218956a5c2a6e42d6a60afccf80b002b, type: 3}
    m_FontSize: 40
    m_FontStyle: 0
    m_BestFit: 0
    m_MinSize: 10
    m_MaxSize: 40
    m_Alignment: 0
    m_AlignByGeometry: 0
    m_RichText: 1
    m_HorizontalOverflow: 0
    m_VerticalOverflow: 1
    m_LineSpacing: 1
  m_Text: APP SAMPLE
--- !u!222 &130536038
CanvasRenderer:
  m_ObjectHideFlags: 0
  m_PrefabParentObject: {fileID: 22267646, guid: b58c19bae463ca24d82249908693d5c8,
    type: 2}
  m_PrefabInternal: {fileID: 289978213}
  m_GameObject: {fileID: 130536035}
--- !u!1001 &289978213
Prefab:
  m_ObjectHideFlags: 0
  serializedVersion: 2
  m_Modification:
    m_TransformParent: {fileID: 0}
    m_Modifications:
    - target: {fileID: 22467676, guid: b58c19bae463ca24d82249908693d5c8, type: 2}
      propertyPath: m_LocalPosition.x
      value: 0
      objectReference: {fileID: 0}
    - target: {fileID: 22467676, guid: b58c19bae463ca24d82249908693d5c8, type: 2}
      propertyPath: m_LocalPosition.y
      value: 0
      objectReference: {fileID: 0}
    - target: {fileID: 22467676, guid: b58c19bae463ca24d82249908693d5c8, type: 2}
      propertyPath: m_LocalPosition.z
      value: 0
      objectReference: {fileID: 0}
    - target: {fileID: 22467676, guid: b58c19bae463ca24d82249908693d5c8, type: 2}
      propertyPath: m_LocalRotation.x
      value: 0
      objectReference: {fileID: 0}
    - target: {fileID: 22467676, guid: b58c19bae463ca24d82249908693d5c8, type: 2}
      propertyPath: m_LocalRotation.y
      value: 0
      objectReference: {fileID: 0}
    - target: {fileID: 22467676, guid: b58c19bae463ca24d82249908693d5c8, type: 2}
      propertyPath: m_LocalRotation.z
      value: 0
      objectReference: {fileID: 0}
    - target: {fileID: 22467676, guid: b58c19bae463ca24d82249908693d5c8, type: 2}
      propertyPath: m_LocalRotation.w
      value: 1
      objectReference: {fileID: 0}
    - target: {fileID: 22467676, guid: b58c19bae463ca24d82249908693d5c8, type: 2}
      propertyPath: m_RootOrder
      value: 0
      objectReference: {fileID: 0}
    - target: {fileID: 22467676, guid: b58c19bae463ca24d82249908693d5c8, type: 2}
      propertyPath: m_AnchoredPosition.x
      value: 0
      objectReference: {fileID: 0}
    - target: {fileID: 22467676, guid: b58c19bae463ca24d82249908693d5c8, type: 2}
      propertyPath: m_AnchoredPosition.y
      value: 0
      objectReference: {fileID: 0}
    - target: {fileID: 22467676, guid: b58c19bae463ca24d82249908693d5c8, type: 2}
      propertyPath: m_SizeDelta.x
      value: 0
      objectReference: {fileID: 0}
    - target: {fileID: 22467676, guid: b58c19bae463ca24d82249908693d5c8, type: 2}
      propertyPath: m_SizeDelta.y
      value: 0
      objectReference: {fileID: 0}
    - target: {fileID: 22467676, guid: b58c19bae463ca24d82249908693d5c8, type: 2}
      propertyPath: m_AnchorMin.x
      value: 0
      objectReference: {fileID: 0}
    - target: {fileID: 22467676, guid: b58c19bae463ca24d82249908693d5c8, type: 2}
      propertyPath: m_AnchorMin.y
      value: 0
      objectReference: {fileID: 0}
    - target: {fileID: 22467676, guid: b58c19bae463ca24d82249908693d5c8, type: 2}
      propertyPath: m_AnchorMax.x
      value: 0
      objectReference: {fileID: 0}
    - target: {fileID: 22467676, guid: b58c19bae463ca24d82249908693d5c8, type: 2}
      propertyPath: m_AnchorMax.y
      value: 0
      objectReference: {fileID: 0}
    - target: {fileID: 22467676, guid: b58c19bae463ca24d82249908693d5c8, type: 2}
      propertyPath: m_Pivot.x
      value: 0
      objectReference: {fileID: 0}
    - target: {fileID: 22467676, guid: b58c19bae463ca24d82249908693d5c8, type: 2}
      propertyPath: m_Pivot.y
      value: 0
      objectReference: {fileID: 0}
    m_RemovedComponents: []
  m_ParentPrefab: {fileID: 100100000, guid: b58c19bae463ca24d82249908693d5c8, type: 2}
  m_RootGameObject: {fileID: 1840475473}
  m_IsPrefabParent: 0
--- !u!1 &293355425
GameObject:
  m_ObjectHideFlags: 0
  m_PrefabParentObject: {fileID: 167648, guid: b58c19bae463ca24d82249908693d5c8, type: 2}
  m_PrefabInternal: {fileID: 289978213}
  serializedVersion: 5
  m_Component:
  - component: {fileID: 293355426}
  - component: {fileID: 293355428}
  - component: {fileID: 293355427}
  m_Layer: 5
  m_Name: Circle
  m_TagString: Untagged
  m_Icon: {fileID: 0}
  m_NavMeshLayer: 0
  m_StaticEditorFlags: 0
  m_IsActive: 1
--- !u!224 &293355426
RectTransform:
  m_ObjectHideFlags: 0
  m_PrefabParentObject: {fileID: 22467648, guid: b58c19bae463ca24d82249908693d5c8,
    type: 2}
  m_PrefabInternal: {fileID: 289978213}
  m_GameObject: {fileID: 293355425}
  m_LocalRotation: {x: 0, y: 0, z: 0.5126217, w: -0.8586146}
  m_LocalPosition: {x: 0, y: 0, z: 0}
  m_LocalScale: {x: 1, y: 1, z: 1}
  m_Children: []
  m_Father: {fileID: 1257908685}
  m_RootOrder: 9
  m_LocalEulerAnglesHint: {x: 0, y: 0, z: 0}
  m_AnchorMin: {x: 0, y: 0}
  m_AnchorMax: {x: 0, y: 0}
  m_AnchoredPosition: {x: 318, y: 318}
  m_SizeDelta: {x: 621, y: 621}
  m_Pivot: {x: 0.5, y: 0.5}
--- !u!114 &293355427
MonoBehaviour:
  m_ObjectHideFlags: 0
  m_PrefabParentObject: {fileID: 11467648, guid: b58c19bae463ca24d82249908693d5c8,
    type: 2}
  m_PrefabInternal: {fileID: 289978213}
  m_GameObject: {fileID: 293355425}
  m_Enabled: 1
  m_EditorHideFlags: 0
  m_Script: {fileID: -765806418, guid: f5f67c52d1564df4a8936ccd202a3bd8, type: 3}
  m_Name: 
  m_EditorClassIdentifier: 
  m_Material: {fileID: 0}
  m_Color: {r: 0.96862745, g: 0.94509804, b: 0.9372549, a: 0.3019608}
  m_RaycastTarget: 1
  m_OnCullStateChanged:
    m_PersistentCalls:
      m_Calls: []
    m_TypeName: UnityEngine.UI.MaskableGraphic+CullStateChangedEvent, UnityEngine.UI,
      Version=1.0.0.0, Culture=neutral, PublicKeyToken=null
  m_Sprite: {fileID: 21300000, guid: 73ff9b0cba4d93a41b8b2f045a8d52c1, type: 3}
  m_Type: 3
  m_PreserveAspect: 0
  m_FillCenter: 1
  m_FillMethod: 4
  m_FillAmount: 0.1
  m_FillClockwise: 1
  m_FillOrigin: 0
--- !u!222 &293355428
CanvasRenderer:
  m_ObjectHideFlags: 0
  m_PrefabParentObject: {fileID: 22267648, guid: b58c19bae463ca24d82249908693d5c8,
    type: 2}
  m_PrefabInternal: {fileID: 289978213}
  m_GameObject: {fileID: 293355425}
--- !u!1 &430908109
GameObject:
  m_ObjectHideFlags: 0
  m_PrefabParentObject: {fileID: 167668, guid: b58c19bae463ca24d82249908693d5c8, type: 2}
  m_PrefabInternal: {fileID: 289978213}
  serializedVersion: 5
  m_Component:
  - component: {fileID: 430908110}
  - component: {fileID: 430908112}
  - component: {fileID: 430908111}
  m_Layer: 5
  m_Name: Text
  m_TagString: Untagged
  m_Icon: {fileID: 0}
  m_NavMeshLayer: 0
  m_StaticEditorFlags: 0
  m_IsActive: 1
--- !u!224 &430908110
RectTransform:
  m_ObjectHideFlags: 0
  m_PrefabParentObject: {fileID: 22467668, guid: b58c19bae463ca24d82249908693d5c8,
    type: 2}
  m_PrefabInternal: {fileID: 289978213}
  m_GameObject: {fileID: 430908109}
  m_LocalRotation: {x: 0, y: 0, z: 0, w: 1}
  m_LocalPosition: {x: 0, y: 0, z: 0}
  m_LocalScale: {x: 1, y: 1, z: 1}
  m_Children: []
  m_Father: {fileID: 1257908685}
  m_RootOrder: 1
  m_LocalEulerAnglesHint: {x: 0, y: 0, z: 0}
  m_AnchorMin: {x: 0.5, y: 0.5}
  m_AnchorMax: {x: 0.5, y: 0.5}
  m_AnchoredPosition: {x: 0, y: 15}
  m_SizeDelta: {x: 636, y: 139}
  m_Pivot: {x: 0.5, y: 0.5}
--- !u!114 &430908111
MonoBehaviour:
  m_ObjectHideFlags: 0
  m_PrefabParentObject: {fileID: 11467670, guid: b58c19bae463ca24d82249908693d5c8,
    type: 2}
  m_PrefabInternal: {fileID: 289978213}
  m_GameObject: {fileID: 430908109}
  m_Enabled: 1
  m_EditorHideFlags: 0
  m_Script: {fileID: 708705254, guid: f5f67c52d1564df4a8936ccd202a3bd8, type: 3}
  m_Name: 
  m_EditorClassIdentifier: 
  m_Material: {fileID: 0}
  m_Color: {r: 0.96862745, g: 0.94509804, b: 0.9372549, a: 0.8352941}
  m_RaycastTarget: 1
  m_OnCullStateChanged:
    m_PersistentCalls:
      m_Calls: []
    m_TypeName: UnityEngine.UI.MaskableGraphic+CullStateChangedEvent, UnityEngine.UI,
      Version=1.0.0.0, Culture=neutral, PublicKeyToken=null
  m_FontData:
    m_Font: {fileID: 12800000, guid: 5c425d43bb0df45ca8eb162d5154251e, type: 3}
    m_FontSize: 80
    m_FontStyle: 0
    m_BestFit: 0
    m_MinSize: 10
    m_MaxSize: 80
    m_Alignment: 4
    m_AlignByGeometry: 0
    m_RichText: 1
    m_HorizontalOverflow: 0
    m_VerticalOverflow: 0
    m_LineSpacing: 1
  m_Text: 03:40AM
--- !u!222 &430908112
CanvasRenderer:
  m_ObjectHideFlags: 0
  m_PrefabParentObject: {fileID: 22267668, guid: b58c19bae463ca24d82249908693d5c8,
    type: 2}
  m_PrefabInternal: {fileID: 289978213}
  m_GameObject: {fileID: 430908109}
--- !u!1 &843114099
GameObject:
  m_ObjectHideFlags: 0
  m_PrefabParentObject: {fileID: 167664, guid: b58c19bae463ca24d82249908693d5c8, type: 2}
  m_PrefabInternal: {fileID: 289978213}
  serializedVersion: 5
  m_Component:
  - component: {fileID: 843114100}
  - component: {fileID: 843114102}
  - component: {fileID: 843114101}
  m_Layer: 5
  m_Name: Circle
  m_TagString: Untagged
  m_Icon: {fileID: 0}
  m_NavMeshLayer: 0
  m_StaticEditorFlags: 0
  m_IsActive: 1
--- !u!224 &843114100
RectTransform:
  m_ObjectHideFlags: 0
  m_PrefabParentObject: {fileID: 22467664, guid: b58c19bae463ca24d82249908693d5c8,
    type: 2}
  m_PrefabInternal: {fileID: 289978213}
  m_GameObject: {fileID: 843114099}
  m_LocalRotation: {x: 0, y: 0, z: 0.9998929, w: 0.014635942}
  m_LocalPosition: {x: 0, y: 0, z: 0}
  m_LocalScale: {x: 1, y: 1, z: 1}
  m_Children: []
  m_Father: {fileID: 1257908685}
  m_RootOrder: 6
  m_LocalEulerAnglesHint: {x: 0, y: 0, z: 0}
  m_AnchorMin: {x: 0, y: 0}
  m_AnchorMax: {x: 0, y: 0}
  m_AnchoredPosition: {x: 318, y: 318}
  m_SizeDelta: {x: 621, y: 621}
  m_Pivot: {x: 0.5, y: 0.5}
--- !u!114 &843114101
MonoBehaviour:
  m_ObjectHideFlags: 0
  m_PrefabParentObject: {fileID: 11467666, guid: b58c19bae463ca24d82249908693d5c8,
    type: 2}
  m_PrefabInternal: {fileID: 289978213}
  m_GameObject: {fileID: 843114099}
  m_Enabled: 1
  m_EditorHideFlags: 0
  m_Script: {fileID: -765806418, guid: f5f67c52d1564df4a8936ccd202a3bd8, type: 3}
  m_Name: 
  m_EditorClassIdentifier: 
  m_Material: {fileID: 0}
  m_Color: {r: 0.96862745, g: 0.94509804, b: 0.9372549, a: 0.3019608}
  m_RaycastTarget: 1
  m_OnCullStateChanged:
    m_PersistentCalls:
      m_Calls: []
    m_TypeName: UnityEngine.UI.MaskableGraphic+CullStateChangedEvent, UnityEngine.UI,
      Version=1.0.0.0, Culture=neutral, PublicKeyToken=null
  m_Sprite: {fileID: 21300000, guid: 73ff9b0cba4d93a41b8b2f045a8d52c1, type: 3}
  m_Type: 3
  m_PreserveAspect: 0
  m_FillCenter: 1
  m_FillMethod: 4
  m_FillAmount: 0.1
  m_FillClockwise: 1
  m_FillOrigin: 0
--- !u!222 &843114102
CanvasRenderer:
  m_ObjectHideFlags: 0
  m_PrefabParentObject: {fileID: 22267664, guid: b58c19bae463ca24d82249908693d5c8,
    type: 2}
  m_PrefabInternal: {fileID: 289978213}
  m_GameObject: {fileID: 843114099}
--- !u!1 &1033159936
GameObject:
  m_ObjectHideFlags: 0
  m_PrefabParentObject: {fileID: 167666, guid: b58c19bae463ca24d82249908693d5c8, type: 2}
  m_PrefabInternal: {fileID: 289978213}
  serializedVersion: 5
  m_Component:
  - component: {fileID: 1033159937}
  - component: {fileID: 1033159939}
  - component: {fileID: 1033159938}
  m_Layer: 5
  m_Name: Circle
  m_TagString: Untagged
  m_Icon: {fileID: 0}
  m_NavMeshLayer: 0
  m_StaticEditorFlags: 0
  m_IsActive: 1
--- !u!224 &1033159937
RectTransform:
  m_ObjectHideFlags: 0
  m_PrefabParentObject: {fileID: 22467666, guid: b58c19bae463ca24d82249908693d5c8,
    type: 2}
  m_PrefabInternal: {fileID: 289978213}
  m_GameObject: {fileID: 1033159936}
  m_LocalRotation: {x: 0, y: 0, z: 0.7565544, w: 0.65393084}
  m_LocalPosition: {x: 0, y: 0, z: 0}
  m_LocalScale: {x: 1, y: 1, z: 1}
  m_Children: []
  m_Father: {fileID: 1257908685}
  m_RootOrder: 4
  m_LocalEulerAnglesHint: {x: 0, y: 0, z: 0}
  m_AnchorMin: {x: 0, y: 0}
  m_AnchorMax: {x: 0, y: 0}
  m_AnchoredPosition: {x: 318, y: 318}
  m_SizeDelta: {x: 621, y: 621}
  m_Pivot: {x: 0.5, y: 0.5}
--- !u!114 &1033159938
MonoBehaviour:
  m_ObjectHideFlags: 0
  m_PrefabParentObject: {fileID: 11467668, guid: b58c19bae463ca24d82249908693d5c8,
    type: 2}
  m_PrefabInternal: {fileID: 289978213}
  m_GameObject: {fileID: 1033159936}
  m_Enabled: 1
  m_EditorHideFlags: 0
  m_Script: {fileID: -765806418, guid: f5f67c52d1564df4a8936ccd202a3bd8, type: 3}
  m_Name: 
  m_EditorClassIdentifier: 
  m_Material: {fileID: 0}
  m_Color: {r: 0.96862745, g: 0.94509804, b: 0.9372549, a: 0.3019608}
  m_RaycastTarget: 1
  m_OnCullStateChanged:
    m_PersistentCalls:
      m_Calls: []
    m_TypeName: UnityEngine.UI.MaskableGraphic+CullStateChangedEvent, UnityEngine.UI,
      Version=1.0.0.0, Culture=neutral, PublicKeyToken=null
  m_Sprite: {fileID: 21300000, guid: 73ff9b0cba4d93a41b8b2f045a8d52c1, type: 3}
  m_Type: 3
  m_PreserveAspect: 0
  m_FillCenter: 1
  m_FillMethod: 4
  m_FillAmount: 0.1
  m_FillClockwise: 1
  m_FillOrigin: 0
--- !u!222 &1033159939
CanvasRenderer:
  m_ObjectHideFlags: 0
  m_PrefabParentObject: {fileID: 22267666, guid: b58c19bae463ca24d82249908693d5c8,
    type: 2}
  m_PrefabInternal: {fileID: 289978213}
  m_GameObject: {fileID: 1033159936}
--- !u!1 &1076046176
GameObject:
  m_ObjectHideFlags: 0
  m_PrefabParentObject: {fileID: 167656, guid: b58c19bae463ca24d82249908693d5c8, type: 2}
  m_PrefabInternal: {fileID: 289978213}
  serializedVersion: 5
  m_Component:
  - component: {fileID: 1076046177}
  - component: {fileID: 1076046179}
  - component: {fileID: 1076046178}
  m_Layer: 5
  m_Name: Circle
  m_TagString: Untagged
  m_Icon: {fileID: 0}
  m_NavMeshLayer: 0
  m_StaticEditorFlags: 0
  m_IsActive: 1
--- !u!224 &1076046177
RectTransform:
  m_ObjectHideFlags: 0
  m_PrefabParentObject: {fileID: 22467656, guid: b58c19bae463ca24d82249908693d5c8,
    type: 2}
  m_PrefabInternal: {fileID: 289978213}
  m_GameObject: {fileID: 1076046176}
  m_LocalRotation: {x: 0, y: 0, z: 0.9445978, w: -0.3282303}
  m_LocalPosition: {x: 0, y: 0, z: 0}
  m_LocalScale: {x: 1, y: 1, z: 1}
  m_Children: []
  m_Father: {fileID: 1257908685}
  m_RootOrder: 7
  m_LocalEulerAnglesHint: {x: 0, y: 0, z: 0}
  m_AnchorMin: {x: 0, y: 0}
  m_AnchorMax: {x: 0, y: 0}
  m_AnchoredPosition: {x: 318, y: 318}
  m_SizeDelta: {x: 621, y: 621}
  m_Pivot: {x: 0.5, y: 0.5}
--- !u!114 &1076046178
MonoBehaviour:
  m_ObjectHideFlags: 0
  m_PrefabParentObject: {fileID: 11467658, guid: b58c19bae463ca24d82249908693d5c8,
    type: 2}
  m_PrefabInternal: {fileID: 289978213}
  m_GameObject: {fileID: 1076046176}
  m_Enabled: 1
  m_EditorHideFlags: 0
  m_Script: {fileID: -765806418, guid: f5f67c52d1564df4a8936ccd202a3bd8, type: 3}
  m_Name: 
  m_EditorClassIdentifier: 
  m_Material: {fileID: 0}
  m_Color: {r: 0.96862745, g: 0.94509804, b: 0.9372549, a: 0.61960787}
  m_RaycastTarget: 1
  m_OnCullStateChanged:
    m_PersistentCalls:
      m_Calls: []
    m_TypeName: UnityEngine.UI.MaskableGraphic+CullStateChangedEvent, UnityEngine.UI,
      Version=1.0.0.0, Culture=neutral, PublicKeyToken=null
  m_Sprite: {fileID: 21300000, guid: 73ff9b0cba4d93a41b8b2f045a8d52c1, type: 3}
  m_Type: 3
  m_PreserveAspect: 0
  m_FillCenter: 1
  m_FillMethod: 4
  m_FillAmount: 0.1
  m_FillClockwise: 1
  m_FillOrigin: 0
--- !u!222 &1076046179
CanvasRenderer:
  m_ObjectHideFlags: 0
  m_PrefabParentObject: {fileID: 22267656, guid: b58c19bae463ca24d82249908693d5c8,
    type: 2}
  m_PrefabInternal: {fileID: 289978213}
  m_GameObject: {fileID: 1076046176}
--- !u!1 &1118914221
GameObject:
  m_ObjectHideFlags: 0
  m_PrefabParentObject: {fileID: 167654, guid: b58c19bae463ca24d82249908693d5c8, type: 2}
  m_PrefabInternal: {fileID: 289978213}
  serializedVersion: 5
  m_Component:
  - component: {fileID: 1118914222}
  - component: {fileID: 1118914224}
  - component: {fileID: 1118914223}
  m_Layer: 5
  m_Name: Circle
  m_TagString: Untagged
  m_Icon: {fileID: 0}
  m_NavMeshLayer: 0
  m_StaticEditorFlags: 0
  m_IsActive: 1
--- !u!224 &1118914222
RectTransform:
  m_ObjectHideFlags: 0
  m_PrefabParentObject: {fileID: 22467654, guid: b58c19bae463ca24d82249908693d5c8,
    type: 2}
  m_PrefabInternal: {fileID: 289978213}
  m_GameObject: {fileID: 1118914221}
  m_LocalRotation: {x: 0, y: 0, z: 0.9345862, w: 0.35573673}
  m_LocalPosition: {x: 0, y: 0, z: 0}
  m_LocalScale: {x: 1, y: 1, z: 1}
  m_Children: []
  m_Father: {fileID: 1257908685}
  m_RootOrder: 5
  m_LocalEulerAnglesHint: {x: 0, y: 0, z: 0}
  m_AnchorMin: {x: 0, y: 0}
  m_AnchorMax: {x: 0, y: 0}
  m_AnchoredPosition: {x: 318, y: 318}
  m_SizeDelta: {x: 621, y: 621}
  m_Pivot: {x: 0.5, y: 0.5}
--- !u!114 &1118914223
MonoBehaviour:
  m_ObjectHideFlags: 0
  m_PrefabParentObject: {fileID: 11467656, guid: b58c19bae463ca24d82249908693d5c8,
    type: 2}
  m_PrefabInternal: {fileID: 289978213}
  m_GameObject: {fileID: 1118914221}
  m_Enabled: 1
  m_EditorHideFlags: 0
  m_Script: {fileID: -765806418, guid: f5f67c52d1564df4a8936ccd202a3bd8, type: 3}
  m_Name: 
  m_EditorClassIdentifier: 
  m_Material: {fileID: 0}
  m_Color: {r: 0.96862745, g: 0.94509804, b: 0.9372549, a: 0.3019608}
  m_RaycastTarget: 1
  m_OnCullStateChanged:
    m_PersistentCalls:
      m_Calls: []
    m_TypeName: UnityEngine.UI.MaskableGraphic+CullStateChangedEvent, UnityEngine.UI,
      Version=1.0.0.0, Culture=neutral, PublicKeyToken=null
  m_Sprite: {fileID: 21300000, guid: 73ff9b0cba4d93a41b8b2f045a8d52c1, type: 3}
  m_Type: 3
  m_PreserveAspect: 0
  m_FillCenter: 1
  m_FillMethod: 4
  m_FillAmount: 0.1
  m_FillClockwise: 1
  m_FillOrigin: 0
--- !u!222 &1118914224
CanvasRenderer:
  m_ObjectHideFlags: 0
  m_PrefabParentObject: {fileID: 22267654, guid: b58c19bae463ca24d82249908693d5c8,
    type: 2}
  m_PrefabInternal: {fileID: 289978213}
  m_GameObject: {fileID: 1118914221}
--- !u!1 &1257908684
GameObject:
  m_ObjectHideFlags: 0
  m_PrefabParentObject: {fileID: 167650, guid: b58c19bae463ca24d82249908693d5c8, type: 2}
  m_PrefabInternal: {fileID: 289978213}
  serializedVersion: 5
  m_Component:
  - component: {fileID: 1257908685}
  - component: {fileID: 1257908688}
  - component: {fileID: 1257908687}
  - component: {fileID: 1257908686}
  m_Layer: 5
  m_Name: Panel
  m_TagString: Untagged
  m_Icon: {fileID: 0}
  m_NavMeshLayer: 0
  m_StaticEditorFlags: 0
  m_IsActive: 1
--- !u!224 &1257908685
RectTransform:
  m_ObjectHideFlags: 0
  m_PrefabParentObject: {fileID: 22467650, guid: b58c19bae463ca24d82249908693d5c8,
    type: 2}
  m_PrefabInternal: {fileID: 289978213}
  m_GameObject: {fileID: 1257908684}
  m_LocalRotation: {x: 0, y: 0, z: 0, w: 1}
  m_LocalPosition: {x: 0, y: 0, z: 0}
  m_LocalScale: {x: 1, y: 1, z: 1}
  m_Children:
  - {fileID: 34101310}
  - {fileID: 430908110}
  - {fileID: 1365475939}
  - {fileID: 1688572924}
  - {fileID: 1033159937}
  - {fileID: 1118914222}
  - {fileID: 843114100}
  - {fileID: 1076046177}
  - {fileID: 1741885755}
  - {fileID: 293355426}
  - {fileID: 1751342658}
  - {fileID: 1745480660}
  m_Father: {fileID: 1840475477}
  m_RootOrder: 1
  m_LocalEulerAnglesHint: {x: 0, y: 0, z: 0}
  m_AnchorMin: {x: 0, y: 0}
  m_AnchorMax: {x: 0, y: 0}
  m_AnchoredPosition: {x: 318, y: 318}
  m_SizeDelta: {x: 636, y: 636}
  m_Pivot: {x: 0.5, y: 0.5}
--- !u!114 &1257908686
MonoBehaviour:
  m_ObjectHideFlags: 0
  m_PrefabParentObject: {fileID: 11467650, guid: b58c19bae463ca24d82249908693d5c8,
    type: 2}
  m_PrefabInternal: {fileID: 289978213}
  m_GameObject: {fileID: 1257908684}
  m_Enabled: 1
  m_EditorHideFlags: 0
  m_Script: {fileID: -1200242548, guid: f5f67c52d1564df4a8936ccd202a3bd8, type: 3}
  m_Name: 
  m_EditorClassIdentifier: 
  m_ShowMaskGraphic: 1
--- !u!114 &1257908687
MonoBehaviour:
  m_ObjectHideFlags: 0
  m_PrefabParentObject: {fileID: 11467652, guid: b58c19bae463ca24d82249908693d5c8,
    type: 2}
  m_PrefabInternal: {fileID: 289978213}
  m_GameObject: {fileID: 1257908684}
  m_Enabled: 1
  m_EditorHideFlags: 0
  m_Script: {fileID: -765806418, guid: f5f67c52d1564df4a8936ccd202a3bd8, type: 3}
  m_Name: 
  m_EditorClassIdentifier: 
  m_Material: {fileID: 0}
  m_Color: {r: 0.972549, g: 0.9490196, b: 0.9411765, a: 1}
  m_RaycastTarget: 1
  m_OnCullStateChanged:
    m_PersistentCalls:
      m_Calls: []
    m_TypeName: UnityEngine.UI.MaskableGraphic+CullStateChangedEvent, UnityEngine.UI,
      Version=1.0.0.0, Culture=neutral, PublicKeyToken=null
  m_Sprite: {fileID: 21300000, guid: 86c50c842fc5e5548b6a6e876c645ee0, type: 3}
  m_Type: 0
  m_PreserveAspect: 0
  m_FillCenter: 1
  m_FillMethod: 4
  m_FillAmount: 1
  m_FillClockwise: 1
  m_FillOrigin: 0
--- !u!222 &1257908688
CanvasRenderer:
  m_ObjectHideFlags: 0
  m_PrefabParentObject: {fileID: 22267650, guid: b58c19bae463ca24d82249908693d5c8,
    type: 2}
  m_PrefabInternal: {fileID: 289978213}
  m_GameObject: {fileID: 1257908684}
--- !u!1 &1365475938
GameObject:
  m_ObjectHideFlags: 0
  m_PrefabParentObject: {fileID: 167674, guid: b58c19bae463ca24d82249908693d5c8, type: 2}
  m_PrefabInternal: {fileID: 289978213}
  serializedVersion: 5
  m_Component:
  - component: {fileID: 1365475939}
  - component: {fileID: 1365475941}
  - component: {fileID: 1365475940}
  m_Layer: 5
  m_Name: Text
  m_TagString: Untagged
  m_Icon: {fileID: 0}
  m_NavMeshLayer: 0
  m_StaticEditorFlags: 0
  m_IsActive: 1
--- !u!224 &1365475939
RectTransform:
  m_ObjectHideFlags: 0
  m_PrefabParentObject: {fileID: 22467674, guid: b58c19bae463ca24d82249908693d5c8,
    type: 2}
  m_PrefabInternal: {fileID: 289978213}
  m_GameObject: {fileID: 1365475938}
  m_LocalRotation: {x: 0, y: 0, z: 0, w: 1}
  m_LocalPosition: {x: 0, y: 0, z: 0}
  m_LocalScale: {x: 1, y: 1, z: 1}
  m_Children: []
  m_Father: {fileID: 1257908685}
  m_RootOrder: 2
  m_LocalEulerAnglesHint: {x: 0, y: 0, z: 0}
  m_AnchorMin: {x: 0.5, y: 0.5}
  m_AnchorMax: {x: 0.5, y: 0.5}
  m_AnchoredPosition: {x: 0, y: -37}
  m_SizeDelta: {x: 636, y: 139}
  m_Pivot: {x: 0.5, y: 0.5}
--- !u!114 &1365475940
MonoBehaviour:
  m_ObjectHideFlags: 0
  m_PrefabParentObject: {fileID: 11467676, guid: b58c19bae463ca24d82249908693d5c8,
    type: 2}
  m_PrefabInternal: {fileID: 289978213}
  m_GameObject: {fileID: 1365475938}
  m_Enabled: 1
  m_EditorHideFlags: 0
  m_Script: {fileID: 708705254, guid: f5f67c52d1564df4a8936ccd202a3bd8, type: 3}
  m_Name: 
  m_EditorClassIdentifier: 
  m_Material: {fileID: 0}
  m_Color: {r: 0.96862745, g: 0.94509804, b: 0.9372549, a: 0.8352941}
  m_RaycastTarget: 1
  m_OnCullStateChanged:
    m_PersistentCalls:
      m_Calls: []
    m_TypeName: UnityEngine.UI.MaskableGraphic+CullStateChangedEvent, UnityEngine.UI,
      Version=1.0.0.0, Culture=neutral, PublicKeyToken=null
  m_FontData:
    m_Font: {fileID: 12800000, guid: 5c425d43bb0df45ca8eb162d5154251e, type: 3}
    m_FontSize: 40
    m_FontStyle: 0
    m_BestFit: 0
    m_MinSize: 10
    m_MaxSize: 40
    m_Alignment: 4
    m_AlignByGeometry: 0
    m_RichText: 1
    m_HorizontalOverflow: 0
    m_VerticalOverflow: 0
    m_LineSpacing: 1
  m_Text: Vancouver
--- !u!222 &1365475941
CanvasRenderer:
  m_ObjectHideFlags: 0
  m_PrefabParentObject: {fileID: 22267674, guid: b58c19bae463ca24d82249908693d5c8,
    type: 2}
  m_PrefabInternal: {fileID: 289978213}
  m_GameObject: {fileID: 1365475938}
--- !u!1 &1500371475
GameObject:
  m_ObjectHideFlags: 0
  m_PrefabParentObject: {fileID: 0}
  m_PrefabInternal: {fileID: 0}
  serializedVersion: 5
  m_Component:
  - component: {fileID: 1500371479}
  - component: {fileID: 1500371478}
  - component: {fileID: 1500371477}
  - component: {fileID: 1500371476}
  m_Layer: 0
  m_Name: EventSystem
  m_TagString: Untagged
  m_Icon: {fileID: 0}
  m_NavMeshLayer: 0
  m_StaticEditorFlags: 0
  m_IsActive: 1
--- !u!114 &1500371476
MonoBehaviour:
  m_ObjectHideFlags: 0
  m_PrefabParentObject: {fileID: 0}
  m_PrefabInternal: {fileID: 0}
  m_GameObject: {fileID: 1500371475}
  m_Enabled: 1
  m_EditorHideFlags: 0
  m_Script: {fileID: 1997211142, guid: f5f67c52d1564df4a8936ccd202a3bd8, type: 3}
  m_Name: 
  m_EditorClassIdentifier: 
  m_ForceModuleActive: 0
--- !u!114 &1500371477
MonoBehaviour:
  m_ObjectHideFlags: 0
  m_PrefabParentObject: {fileID: 0}
  m_PrefabInternal: {fileID: 0}
  m_GameObject: {fileID: 1500371475}
  m_Enabled: 1
  m_EditorHideFlags: 0
  m_Script: {fileID: 1077351063, guid: f5f67c52d1564df4a8936ccd202a3bd8, type: 3}
  m_Name: 
  m_EditorClassIdentifier: 
  m_HorizontalAxis: Horizontal
  m_VerticalAxis: Vertical
  m_SubmitButton: Submit
  m_CancelButton: Cancel
  m_InputActionsPerSecond: 10
  m_RepeatDelay: 0.5
  m_ForceModuleActive: 0
--- !u!114 &1500371478
MonoBehaviour:
  m_ObjectHideFlags: 0
  m_PrefabParentObject: {fileID: 0}
  m_PrefabInternal: {fileID: 0}
  m_GameObject: {fileID: 1500371475}
  m_Enabled: 1
  m_EditorHideFlags: 0
  m_Script: {fileID: -619905303, guid: f5f67c52d1564df4a8936ccd202a3bd8, type: 3}
  m_Name: 
  m_EditorClassIdentifier: 
  m_FirstSelected: {fileID: 0}
  m_sendNavigationEvents: 1
  m_DragThreshold: 5
--- !u!4 &1500371479
Transform:
  m_ObjectHideFlags: 0
  m_PrefabParentObject: {fileID: 0}
  m_PrefabInternal: {fileID: 0}
  m_GameObject: {fileID: 1500371475}
  m_LocalRotation: {x: 0, y: 0, z: 0, w: 1}
  m_LocalPosition: {x: 0, y: 0, z: 0}
  m_LocalScale: {x: 1, y: 1, z: 1}
  m_Children: []
  m_Father: {fileID: 0}
  m_RootOrder: 1
  m_LocalEulerAnglesHint: {x: 0, y: 0, z: 0}
--- !u!1 &1511305452
GameObject:
  m_ObjectHideFlags: 0
  m_PrefabParentObject: {fileID: 0}
  m_PrefabInternal: {fileID: 0}
  serializedVersion: 5
  m_Component:
  - component: {fileID: 1511305453}
  m_Layer: 0
  m_Name: __SET_YOUR_GAMESCREEN_TO_636x636
  m_TagString: Untagged
  m_Icon: {fileID: 0}
  m_NavMeshLayer: 0
  m_StaticEditorFlags: 0
  m_IsActive: 1
--- !u!4 &1511305453
Transform:
  m_ObjectHideFlags: 0
  m_PrefabParentObject: {fileID: 0}
  m_PrefabInternal: {fileID: 0}
  m_GameObject: {fileID: 1511305452}
  m_LocalRotation: {x: 0, y: 0, z: 0, w: 1}
  m_LocalPosition: {x: 494.995, y: 627.74, z: 0}
  m_LocalScale: {x: 1, y: 1, z: 1}
  m_Children: []
  m_Father: {fileID: 0}
  m_RootOrder: 2
  m_LocalEulerAnglesHint: {x: 0, y: 0, z: 0}
--- !u!1 &1688572923
GameObject:
  m_ObjectHideFlags: 0
  m_PrefabParentObject: {fileID: 167672, guid: b58c19bae463ca24d82249908693d5c8, type: 2}
  m_PrefabInternal: {fileID: 289978213}
  serializedVersion: 5
  m_Component:
  - component: {fileID: 1688572924}
  - component: {fileID: 1688572926}
  - component: {fileID: 1688572925}
  m_Layer: 5
  m_Name: Circle
  m_TagString: Untagged
  m_Icon: {fileID: 0}
  m_NavMeshLayer: 0
  m_StaticEditorFlags: 0
  m_IsActive: 1
--- !u!224 &1688572924
RectTransform:
  m_ObjectHideFlags: 0
  m_PrefabParentObject: {fileID: 22467672, guid: b58c19bae463ca24d82249908693d5c8,
    type: 2}
  m_PrefabInternal: {fileID: 289978213}
  m_GameObject: {fileID: 1688572923}
  m_LocalRotation: {x: 0, y: 0, z: 0.48727152, w: 0.87325054}
  m_LocalPosition: {x: 0, y: 0, z: 0}
  m_LocalScale: {x: 1, y: 1, z: 1}
  m_Children: []
  m_Father: {fileID: 1257908685}
  m_RootOrder: 3
  m_LocalEulerAnglesHint: {x: 0, y: 0, z: 0}
  m_AnchorMin: {x: 0, y: 0}
  m_AnchorMax: {x: 0, y: 0}
  m_AnchoredPosition: {x: 318, y: 318}
  m_SizeDelta: {x: 621, y: 621}
  m_Pivot: {x: 0.5, y: 0.5}
--- !u!114 &1688572925
MonoBehaviour:
  m_ObjectHideFlags: 0
  m_PrefabParentObject: {fileID: 11467674, guid: b58c19bae463ca24d82249908693d5c8,
    type: 2}
  m_PrefabInternal: {fileID: 289978213}
  m_GameObject: {fileID: 1688572923}
  m_Enabled: 1
  m_EditorHideFlags: 0
  m_Script: {fileID: -765806418, guid: f5f67c52d1564df4a8936ccd202a3bd8, type: 3}
  m_Name: 
  m_EditorClassIdentifier: 
  m_Material: {fileID: 0}
  m_Color: {r: 0.96862745, g: 0.94509804, b: 0.9372549, a: 0.3019608}
  m_RaycastTarget: 1
  m_OnCullStateChanged:
    m_PersistentCalls:
      m_Calls: []
    m_TypeName: UnityEngine.UI.MaskableGraphic+CullStateChangedEvent, UnityEngine.UI,
      Version=1.0.0.0, Culture=neutral, PublicKeyToken=null
  m_Sprite: {fileID: 21300000, guid: 73ff9b0cba4d93a41b8b2f045a8d52c1, type: 3}
  m_Type: 3
  m_PreserveAspect: 0
  m_FillCenter: 1
  m_FillMethod: 4
  m_FillAmount: 0.1
  m_FillClockwise: 1
  m_FillOrigin: 0
--- !u!222 &1688572926
CanvasRenderer:
  m_ObjectHideFlags: 0
  m_PrefabParentObject: {fileID: 22267672, guid: b58c19bae463ca24d82249908693d5c8,
    type: 2}
  m_PrefabInternal: {fileID: 289978213}
  m_GameObject: {fileID: 1688572923}
--- !u!1 &1730031900
GameObject:
  m_ObjectHideFlags: 0
  m_PrefabParentObject: {fileID: 167660, guid: b58c19bae463ca24d82249908693d5c8, type: 2}
  m_PrefabInternal: {fileID: 289978213}
  serializedVersion: 5
  m_Component:
  - component: {fileID: 1730031901}
  - component: {fileID: 1730031903}
  - component: {fileID: 1730031902}
  m_Layer: 5
  m_Name: AppTitle
  m_TagString: Untagged
  m_Icon: {fileID: 0}
  m_NavMeshLayer: 0
  m_StaticEditorFlags: 0
  m_IsActive: 1
--- !u!224 &1730031901
RectTransform:
  m_ObjectHideFlags: 0
  m_PrefabParentObject: {fileID: 22467660, guid: b58c19bae463ca24d82249908693d5c8,
    type: 2}
  m_PrefabInternal: {fileID: 289978213}
  m_GameObject: {fileID: 1730031900}
  m_LocalRotation: {x: 0, y: 0, z: 0, w: 1}
  m_LocalPosition: {x: 0, y: 0, z: 0}
  m_LocalScale: {x: 1, y: 1, z: 1}
  m_Children:
  - {fileID: 130536036}
  m_Father: {fileID: 1840475477}
  m_RootOrder: 0
  m_LocalEulerAnglesHint: {x: 0, y: 0, z: 0}
  m_AnchorMin: {x: 0.5, y: 0.5}
  m_AnchorMax: {x: 0.5, y: 0.5}
  m_AnchoredPosition: {x: 28, y: 410}
  m_SizeDelta: {x: 695, y: 109}
  m_Pivot: {x: 0.5, y: 0.5}
--- !u!114 &1730031902
MonoBehaviour:
  m_ObjectHideFlags: 0
  m_PrefabParentObject: {fileID: 11467662, guid: b58c19bae463ca24d82249908693d5c8,
    type: 2}
  m_PrefabInternal: {fileID: 289978213}
  m_GameObject: {fileID: 1730031900}
  m_Enabled: 1
  m_EditorHideFlags: 0
  m_Script: {fileID: 708705254, guid: f5f67c52d1564df4a8936ccd202a3bd8, type: 3}
  m_Name: 
  m_EditorClassIdentifier: 
  m_Material: {fileID: 0}
  m_Color: {r: 0.85490197, g: 0.85490197, b: 0.85490197, a: 1}
  m_RaycastTarget: 1
  m_OnCullStateChanged:
    m_PersistentCalls:
      m_Calls: []
    m_TypeName: UnityEngine.UI.MaskableGraphic+CullStateChangedEvent, UnityEngine.UI,
      Version=1.0.0.0, Culture=neutral, PublicKeyToken=null
  m_FontData:
    m_Font: {fileID: 12800000, guid: 218956a5c2a6e42d6a60afccf80b002b, type: 3}
    m_FontSize: 75
    m_FontStyle: 0
    m_BestFit: 0
    m_MinSize: 10
    m_MaxSize: 75
    m_Alignment: 0
    m_AlignByGeometry: 0
    m_RichText: 1
    m_HorizontalOverflow: 0
    m_VerticalOverflow: 1
    m_LineSpacing: 1
  m_Text: CLOCK WATCH
--- !u!222 &1730031903
CanvasRenderer:
  m_ObjectHideFlags: 0
  m_PrefabParentObject: {fileID: 22267660, guid: b58c19bae463ca24d82249908693d5c8,
    type: 2}
  m_PrefabInternal: {fileID: 289978213}
  m_GameObject: {fileID: 1730031900}
--- !u!1 &1741885754
GameObject:
  m_ObjectHideFlags: 0
  m_PrefabParentObject: {fileID: 167652, guid: b58c19bae463ca24d82249908693d5c8, type: 2}
  m_PrefabInternal: {fileID: 289978213}
  serializedVersion: 5
  m_Component:
  - component: {fileID: 1741885755}
  - component: {fileID: 1741885757}
  - component: {fileID: 1741885756}
  m_Layer: 5
  m_Name: Circle
  m_TagString: Untagged
  m_Icon: {fileID: 0}
  m_NavMeshLayer: 0
  m_StaticEditorFlags: 0
  m_IsActive: 1
--- !u!224 &1741885755
RectTransform:
  m_ObjectHideFlags: 0
  m_PrefabParentObject: {fileID: 22467652, guid: b58c19bae463ca24d82249908693d5c8,
    type: 2}
  m_PrefabInternal: {fileID: 289978213}
  m_GameObject: {fileID: 1741885754}
  m_LocalRotation: {x: 0, y: 0, z: 0.77537006, w: -0.6315072}
  m_LocalPosition: {x: 0, y: 0, z: 0}
  m_LocalScale: {x: 1, y: 1, z: 1}
  m_Children: []
  m_Father: {fileID: 1257908685}
  m_RootOrder: 8
  m_LocalEulerAnglesHint: {x: 0, y: 0, z: 0}
  m_AnchorMin: {x: 0, y: 0}
  m_AnchorMax: {x: 0, y: 0}
  m_AnchoredPosition: {x: 318, y: 318}
  m_SizeDelta: {x: 621, y: 621}
  m_Pivot: {x: 0.5, y: 0.5}
--- !u!114 &1741885756
MonoBehaviour:
  m_ObjectHideFlags: 0
  m_PrefabParentObject: {fileID: 11467654, guid: b58c19bae463ca24d82249908693d5c8,
    type: 2}
  m_PrefabInternal: {fileID: 289978213}
  m_GameObject: {fileID: 1741885754}
  m_Enabled: 1
  m_EditorHideFlags: 0
  m_Script: {fileID: -765806418, guid: f5f67c52d1564df4a8936ccd202a3bd8, type: 3}
  m_Name: 
  m_EditorClassIdentifier: 
  m_Material: {fileID: 0}
  m_Color: {r: 0.96862745, g: 0.94509804, b: 0.9372549, a: 0.3019608}
  m_RaycastTarget: 1
  m_OnCullStateChanged:
    m_PersistentCalls:
      m_Calls: []
    m_TypeName: UnityEngine.UI.MaskableGraphic+CullStateChangedEvent, UnityEngine.UI,
      Version=1.0.0.0, Culture=neutral, PublicKeyToken=null
  m_Sprite: {fileID: 21300000, guid: 73ff9b0cba4d93a41b8b2f045a8d52c1, type: 3}
  m_Type: 3
  m_PreserveAspect: 0
  m_FillCenter: 1
  m_FillMethod: 4
  m_FillAmount: 0.1
  m_FillClockwise: 1
  m_FillOrigin: 0
--- !u!222 &1741885757
CanvasRenderer:
  m_ObjectHideFlags: 0
  m_PrefabParentObject: {fileID: 22267652, guid: b58c19bae463ca24d82249908693d5c8,
    type: 2}
  m_PrefabInternal: {fileID: 289978213}
  m_GameObject: {fileID: 1741885754}
--- !u!1 &1745480659
GameObject:
  m_ObjectHideFlags: 0
  m_PrefabParentObject: {fileID: 167662, guid: b58c19bae463ca24d82249908693d5c8, type: 2}
  m_PrefabInternal: {fileID: 289978213}
  serializedVersion: 5
  m_Component:
  - component: {fileID: 1745480660}
  - component: {fileID: 1745480662}
  - component: {fileID: 1745480661}
  m_Layer: 5
  m_Name: Circle
  m_TagString: Untagged
  m_Icon: {fileID: 0}
  m_NavMeshLayer: 0
  m_StaticEditorFlags: 0
  m_IsActive: 1
--- !u!224 &1745480660
RectTransform:
  m_ObjectHideFlags: 0
  m_PrefabParentObject: {fileID: 22467662, guid: b58c19bae463ca24d82249908693d5c8,
    type: 2}
  m_PrefabInternal: {fileID: 289978213}
  m_GameObject: {fileID: 1745480659}
  m_LocalRotation: {x: 0, y: 0, z: 0.1592161, w: 0.9872438}
  m_LocalPosition: {x: 0, y: 0, z: 0}
  m_LocalScale: {x: 1, y: 1, z: 1}
  m_Children: []
  m_Father: {fileID: 1257908685}
  m_RootOrder: 11
  m_LocalEulerAnglesHint: {x: 0, y: 0, z: 0}
  m_AnchorMin: {x: 0, y: 0}
  m_AnchorMax: {x: 0, y: 0}
  m_AnchoredPosition: {x: 318, y: 318}
  m_SizeDelta: {x: 621, y: 621}
  m_Pivot: {x: 0.5, y: 0.5}
--- !u!114 &1745480661
MonoBehaviour:
  m_ObjectHideFlags: 0
  m_PrefabParentObject: {fileID: 11467664, guid: b58c19bae463ca24d82249908693d5c8,
    type: 2}
  m_PrefabInternal: {fileID: 289978213}
  m_GameObject: {fileID: 1745480659}
  m_Enabled: 1
  m_EditorHideFlags: 0
  m_Script: {fileID: -765806418, guid: f5f67c52d1564df4a8936ccd202a3bd8, type: 3}
  m_Name: 
  m_EditorClassIdentifier: 
  m_Material: {fileID: 0}
  m_Color: {r: 0.96862745, g: 0.94509804, b: 0.9372549, a: 0.3019608}
  m_RaycastTarget: 1
  m_OnCullStateChanged:
    m_PersistentCalls:
      m_Calls: []
    m_TypeName: UnityEngine.UI.MaskableGraphic+CullStateChangedEvent, UnityEngine.UI,
      Version=1.0.0.0, Culture=neutral, PublicKeyToken=null
  m_Sprite: {fileID: 21300000, guid: 73ff9b0cba4d93a41b8b2f045a8d52c1, type: 3}
  m_Type: 3
  m_PreserveAspect: 0
  m_FillCenter: 1
  m_FillMethod: 4
  m_FillAmount: 0.1
  m_FillClockwise: 1
  m_FillOrigin: 0
--- !u!222 &1745480662
CanvasRenderer:
  m_ObjectHideFlags: 0
  m_PrefabParentObject: {fileID: 22267662, guid: b58c19bae463ca24d82249908693d5c8,
    type: 2}
  m_PrefabInternal: {fileID: 289978213}
  m_GameObject: {fileID: 1745480659}
--- !u!1 &1751342657
GameObject:
  m_ObjectHideFlags: 0
  m_PrefabParentObject: {fileID: 167670, guid: b58c19bae463ca24d82249908693d5c8, type: 2}
  m_PrefabInternal: {fileID: 289978213}
  serializedVersion: 5
  m_Component:
  - component: {fileID: 1751342658}
  - component: {fileID: 1751342660}
  - component: {fileID: 1751342659}
  m_Layer: 5
  m_Name: Circle
  m_TagString: Untagged
  m_Icon: {fileID: 0}
  m_NavMeshLayer: 0
  m_StaticEditorFlags: 0
  m_IsActive: 1
--- !u!224 &1751342658
RectTransform:
  m_ObjectHideFlags: 0
  m_PrefabParentObject: {fileID: 22467670, guid: b58c19bae463ca24d82249908693d5c8,
    type: 2}
  m_PrefabInternal: {fileID: 289978213}
  m_GameObject: {fileID: 1751342657}
  m_LocalRotation: {x: 0, y: 0, z: 0.18804325, w: -0.98216075}
  m_LocalPosition: {x: 0, y: 0, z: 0}
  m_LocalScale: {x: 1, y: 1, z: 1}
  m_Children: []
  m_Father: {fileID: 1257908685}
  m_RootOrder: 10
  m_LocalEulerAnglesHint: {x: 0, y: 0, z: 0}
  m_AnchorMin: {x: 0, y: 0}
  m_AnchorMax: {x: 0, y: 0}
  m_AnchoredPosition: {x: 318, y: 318}
  m_SizeDelta: {x: 621, y: 621}
  m_Pivot: {x: 0.5, y: 0.5}
--- !u!114 &1751342659
MonoBehaviour:
  m_ObjectHideFlags: 0
  m_PrefabParentObject: {fileID: 11467672, guid: b58c19bae463ca24d82249908693d5c8,
    type: 2}
  m_PrefabInternal: {fileID: 289978213}
  m_GameObject: {fileID: 1751342657}
  m_Enabled: 1
  m_EditorHideFlags: 0
  m_Script: {fileID: -765806418, guid: f5f67c52d1564df4a8936ccd202a3bd8, type: 3}
  m_Name: 
  m_EditorClassIdentifier: 
  m_Material: {fileID: 0}
  m_Color: {r: 0.96862745, g: 0.94509804, b: 0.9372549, a: 0.3019608}
  m_RaycastTarget: 1
  m_OnCullStateChanged:
    m_PersistentCalls:
      m_Calls: []
    m_TypeName: UnityEngine.UI.MaskableGraphic+CullStateChangedEvent, UnityEngine.UI,
      Version=1.0.0.0, Culture=neutral, PublicKeyToken=null
  m_Sprite: {fileID: 21300000, guid: 73ff9b0cba4d93a41b8b2f045a8d52c1, type: 3}
  m_Type: 3
  m_PreserveAspect: 0
  m_FillCenter: 1
  m_FillMethod: 4
  m_FillAmount: 0.1
  m_FillClockwise: 1
  m_FillOrigin: 0
--- !u!222 &1751342660
CanvasRenderer:
  m_ObjectHideFlags: 0
  m_PrefabParentObject: {fileID: 22267670, guid: b58c19bae463ca24d82249908693d5c8,
    type: 2}
  m_PrefabInternal: {fileID: 289978213}
  m_GameObject: {fileID: 1751342657}
--- !u!1 &1840475473
GameObject:
  m_ObjectHideFlags: 0
  m_PrefabParentObject: {fileID: 167676, guid: b58c19bae463ca24d82249908693d5c8, type: 2}
  m_PrefabInternal: {fileID: 289978213}
  serializedVersion: 5
  m_Component:
  - component: {fileID: 1840475477}
  - component: {fileID: 1840475476}
  - component: {fileID: 1840475475}
  - component: {fileID: 1840475474}
  m_Layer: 5
  m_Name: WatchTimerApp_1
  m_TagString: Untagged
  m_Icon: {fileID: 0}
  m_NavMeshLayer: 0
  m_StaticEditorFlags: 0
  m_IsActive: 1
--- !u!114 &1840475474
MonoBehaviour:
  m_ObjectHideFlags: 0
  m_PrefabParentObject: {fileID: 11467678, guid: b58c19bae463ca24d82249908693d5c8,
    type: 2}
  m_PrefabInternal: {fileID: 289978213}
  m_GameObject: {fileID: 1840475473}
  m_Enabled: 1
  m_EditorHideFlags: 0
  m_Script: {fileID: 1301386320, guid: f5f67c52d1564df4a8936ccd202a3bd8, type: 3}
  m_Name: 
  m_EditorClassIdentifier: 
  m_IgnoreReversedGraphics: 1
  m_BlockingObjects: 0
  m_BlockingMask:
    serializedVersion: 2
    m_Bits: 4294967295
--- !u!114 &1840475475
MonoBehaviour:
  m_ObjectHideFlags: 0
  m_PrefabParentObject: {fileID: 11467680, guid: b58c19bae463ca24d82249908693d5c8,
    type: 2}
  m_PrefabInternal: {fileID: 289978213}
  m_GameObject: {fileID: 1840475473}
  m_Enabled: 1
  m_EditorHideFlags: 0
  m_Script: {fileID: 1980459831, guid: f5f67c52d1564df4a8936ccd202a3bd8, type: 3}
  m_Name: 
  m_EditorClassIdentifier: 
  m_UiScaleMode: 1
  m_ReferencePixelsPerUnit: 100
  m_ScaleFactor: 1
  m_ReferenceResolution: {x: 636, y: 636}
  m_ScreenMatchMode: 0
  m_MatchWidthOrHeight: 1
  m_PhysicalUnit: 3
  m_FallbackScreenDPI: 96
  m_DefaultSpriteDPI: 96
  m_DynamicPixelsPerUnit: 1
--- !u!223 &1840475476
Canvas:
  m_ObjectHideFlags: 0
  m_PrefabParentObject: {fileID: 22367646, guid: b58c19bae463ca24d82249908693d5c8,
    type: 2}
  m_PrefabInternal: {fileID: 289978213}
  m_GameObject: {fileID: 1840475473}
  m_Enabled: 1
  serializedVersion: 3
  m_RenderMode: 0
  m_Camera: {fileID: 0}
  m_PlaneDistance: 100
  m_PixelPerfect: 1
  m_ReceivesEvents: 1
  m_OverrideSorting: 0
  m_OverridePixelPerfect: 0
  m_SortingBucketNormalizedSize: 0
  m_AdditionalShaderChannelsFlag: 25
  m_SortingLayerID: 0
  m_SortingOrder: 0
  m_TargetDisplay: 0
--- !u!224 &1840475477
RectTransform:
  m_ObjectHideFlags: 0
  m_PrefabParentObject: {fileID: 22467676, guid: b58c19bae463ca24d82249908693d5c8,
    type: 2}
  m_PrefabInternal: {fileID: 289978213}
  m_GameObject: {fileID: 1840475473}
  m_LocalRotation: {x: 0, y: 0, z: 0, w: 1}
  m_LocalPosition: {x: 0, y: 0, z: 0}
  m_LocalScale: {x: 0, y: 0, z: 0}
  m_Children:
  - {fileID: 1730031901}
  - {fileID: 1257908685}
  m_Father: {fileID: 0}
  m_RootOrder: 0
  m_LocalEulerAnglesHint: {x: 0, y: 0, z: 0}
  m_AnchorMin: {x: 0, y: 0}
  m_AnchorMax: {x: 0, y: 0}
  m_AnchoredPosition: {x: 0, y: 0}
  m_SizeDelta: {x: 0, y: 0}
  m_Pivot: {x: 0, y: 0}
