%YAML 1.1
%TAG !u! tag:unity3d.com,2011:
--- !u!29 &1
OcclusionCullingSettings:
  m_ObjectHideFlags: 0
  serializedVersion: 2
  m_OcclusionBakeSettings:
    smallestOccluder: 5
    smallestHole: 0.25
    backfaceThreshold: 100
  m_SceneGUID: 00000000000000000000000000000000
  m_OcclusionCullingData: {fileID: 0}
--- !u!104 &2
RenderSettings:
  m_ObjectHideFlags: 0
  serializedVersion: 8
  m_Fog: 0
  m_FogColor: {r: 0.5, g: 0.5, b: 0.5, a: 1}
  m_FogMode: 3
  m_FogDensity: 0.01
  m_LinearFogStart: 0
  m_LinearFogEnd: 300
  m_AmbientSkyColor: {r: 0.212, g: 0.227, b: 0.259, a: 1}
  m_AmbientEquatorColor: {r: 0.114, g: 0.125, b: 0.133, a: 1}
  m_AmbientGroundColor: {r: 0.047, g: 0.043, b: 0.035, a: 1}
  m_AmbientIntensity: 1
  m_AmbientMode: 0
  m_SubtractiveShadowColor: {r: 0.42, g: 0.478, b: 0.627, a: 1}
  m_SkyboxMaterial: {fileID: 10304, guid: 0000000000000000f000000000000000, type: 0}
  m_HaloStrength: 0.5
  m_FlareStrength: 1
  m_FlareFadeSpeed: 3
  m_HaloTexture: {fileID: 0}
  m_SpotCookie: {fileID: 10001, guid: 0000000000000000e000000000000000, type: 0}
  m_DefaultReflectionMode: 0
  m_DefaultReflectionResolution: 128
  m_ReflectionBounces: 1
  m_ReflectionIntensity: 1
  m_CustomReflection: {fileID: 0}
  m_Sun: {fileID: 0}
  m_IndirectSpecularColor: {r: 0, g: 0, b: 0, a: 1}
--- !u!157 &4
LightmapSettings:
  m_ObjectHideFlags: 0
  serializedVersion: 11
  m_GIWorkflowMode: 0
  m_GISettings:
    serializedVersion: 2
    m_BounceScale: 1
    m_IndirectOutputScale: 1
    m_AlbedoBoost: 1
    m_TemporalCoherenceThreshold: 1
    m_EnvironmentLightingMode: 0
    m_EnableBakedLightmaps: 1
    m_EnableRealtimeLightmaps: 1
  m_LightmapEditorSettings:
    serializedVersion: 9
    m_Resolution: 2
    m_BakeResolution: 40
    m_TextureWidth: 1024
    m_TextureHeight: 1024
    m_AO: 0
    m_AOMaxDistance: 1
    m_CompAOExponent: 0
    m_CompAOExponentDirect: 0
    m_Padding: 2
    m_LightmapParameters: {fileID: 0}
    m_LightmapsBakeMode: 1
    m_TextureCompression: 1
    m_FinalGather: 0
    m_FinalGatherFiltering: 1
    m_FinalGatherRayCount: 1024
    m_ReflectionCompression: 2
    m_MixedBakeMode: 1
    m_BakeBackend: 0
    m_PVRSampling: 1
    m_PVRDirectSampleCount: 32
    m_PVRSampleCount: 500
    m_PVRBounces: 2
    m_PVRFilterTypeDirect: 0
    m_PVRFilterTypeIndirect: 0
    m_PVRFilterTypeAO: 0
    m_PVRFilteringMode: 0
    m_PVRCulling: 1
    m_PVRFilteringGaussRadiusDirect: 1
    m_PVRFilteringGaussRadiusIndirect: 5
    m_PVRFilteringGaussRadiusAO: 2
    m_PVRFilteringAtrousPositionSigmaDirect: 0.5
    m_PVRFilteringAtrousPositionSigmaIndirect: 2
    m_PVRFilteringAtrousPositionSigmaAO: 1
    m_ShowResolutionOverlay: 1
  m_LightingDataAsset: {fileID: 0}
  m_UseShadowmask: 0
--- !u!196 &5
NavMeshSettings:
  serializedVersion: 2
  m_ObjectHideFlags: 0
  m_BuildSettings:
    serializedVersion: 2
    agentTypeID: 0
    agentRadius: 0.5
    agentHeight: 2
    agentSlope: 45
    agentClimb: 0.4
    ledgeDropHeight: 0
    maxJumpAcrossDistance: 0
    minRegionArea: 2
    manualCellSize: 0
    cellSize: 0.16666667
    manualTileSize: 0
    tileSize: 256
    accuratePlacement: 0
    debug:
      m_Flags: 0
  m_NavMeshData: {fileID: 0}
--- !u!1 &149269964
GameObject:
  m_ObjectHideFlags: 0
  m_PrefabParentObject: {fileID: 104054, guid: f03c960f44680df4c9e2e3db87887819, type: 2}
  m_PrefabInternal: {fileID: 982429121}
  serializedVersion: 5
  m_Component:
  - component: {fileID: 149269965}
  - component: {fileID: 149269967}
  - component: {fileID: 149269966}
  m_Layer: 5
  m_Name: Text
  m_TagString: Untagged
  m_Icon: {fileID: 0}
  m_NavMeshLayer: 0
  m_StaticEditorFlags: 0
  m_IsActive: 1
--- !u!224 &149269965
RectTransform:
  m_ObjectHideFlags: 0
  m_PrefabParentObject: {fileID: 22404054, guid: f03c960f44680df4c9e2e3db87887819,
    type: 2}
  m_PrefabInternal: {fileID: 982429121}
  m_GameObject: {fileID: 149269964}
  m_LocalRotation: {x: 0, y: 0, z: 0, w: 1}
  m_LocalPosition: {x: 0, y: 0, z: 0}
  m_LocalScale: {x: 1, y: 1, z: 1}
  m_Children: []
  m_Father: {fileID: 298383078}
  m_RootOrder: 1
  m_LocalEulerAnglesHint: {x: 0, y: 0, z: 0}
  m_AnchorMin: {x: 0.5, y: 0.5}
  m_AnchorMax: {x: 0.5, y: 0.5}
  m_AnchoredPosition: {x: 0, y: 260}
  m_SizeDelta: {x: 1203, y: 520}
  m_Pivot: {x: 0.5, y: 0.5}
--- !u!114 &149269966
MonoBehaviour:
  m_ObjectHideFlags: 0
  m_PrefabParentObject: {fileID: 11404056, guid: f03c960f44680df4c9e2e3db87887819,
    type: 2}
  m_PrefabInternal: {fileID: 982429121}
  m_GameObject: {fileID: 149269964}
  m_Enabled: 1
  m_EditorHideFlags: 0
  m_Script: {fileID: 708705254, guid: f5f67c52d1564df4a8936ccd202a3bd8, type: 3}
  m_Name: 
  m_EditorClassIdentifier: 
  m_Material: {fileID: 0}
  m_Color: {r: 0.36078432, g: 0.36078432, b: 0.36078432, a: 1}
  m_RaycastTarget: 1
  m_OnCullStateChanged:
    m_PersistentCalls:
      m_Calls: []
    m_TypeName: UnityEngine.UI.MaskableGraphic+CullStateChangedEvent, UnityEngine.UI,
      Version=1.0.0.0, Culture=neutral, PublicKeyToken=null
  m_FontData:
    m_Font: {fileID: 12800000, guid: 5c425d43bb0df45ca8eb162d5154251e, type: 3}
    m_FontSize: 259
    m_FontStyle: 0
    m_BestFit: 0
    m_MinSize: 10
    m_MaxSize: 259
    m_Alignment: 4
    m_AlignByGeometry: 0
    m_RichText: 1
    m_HorizontalOverflow: 0
    m_VerticalOverflow: 0
    m_LineSpacing: 1
  m_Text: 05:43 AM
--- !u!222 &149269967
CanvasRenderer:
  m_ObjectHideFlags: 0
  m_PrefabParentObject: {fileID: 22204052, guid: f03c960f44680df4c9e2e3db87887819,
    type: 2}
  m_PrefabInternal: {fileID: 982429121}
  m_GameObject: {fileID: 149269964}
--- !u!1 &250648390
GameObject:
  m_ObjectHideFlags: 0
  m_PrefabParentObject: {fileID: 104052, guid: f03c960f44680df4c9e2e3db87887819, type: 2}
  m_PrefabInternal: {fileID: 982429121}
  serializedVersion: 5
  m_Component:
  - component: {fileID: 250648391}
  - component: {fileID: 250648393}
  - component: {fileID: 250648392}
  m_Layer: 5
  m_Name: Text
  m_TagString: Untagged
  m_Icon: {fileID: 0}
  m_NavMeshLayer: 0
  m_StaticEditorFlags: 0
  m_IsActive: 1
--- !u!224 &250648391
RectTransform:
  m_ObjectHideFlags: 0
  m_PrefabParentObject: {fileID: 22404052, guid: f03c960f44680df4c9e2e3db87887819,
    type: 2}
  m_PrefabInternal: {fileID: 982429121}
  m_GameObject: {fileID: 250648390}
  m_LocalRotation: {x: 0, y: 0, z: 0, w: 1}
  m_LocalPosition: {x: 0, y: 0, z: 0}
  m_LocalScale: {x: 1, y: 1, z: 1}
  m_Children: []
  m_Father: {fileID: 306435672}
  m_RootOrder: 0
  m_LocalEulerAnglesHint: {x: 0, y: 0, z: 0}
  m_AnchorMin: {x: 0.5, y: 0.5}
  m_AnchorMax: {x: 0.5, y: 0.5}
  m_AnchoredPosition: {x: 0, y: -20.8}
  m_SizeDelta: {x: 162, y: 73}
  m_Pivot: {x: 0.5, y: 0.5}
--- !u!114 &250648392
MonoBehaviour:
  m_ObjectHideFlags: 0
  m_PrefabParentObject: {fileID: 11404054, guid: f03c960f44680df4c9e2e3db87887819,
    type: 2}
  m_PrefabInternal: {fileID: 982429121}
  m_GameObject: {fileID: 250648390}
  m_Enabled: 1
  m_EditorHideFlags: 0
  m_Script: {fileID: 708705254, guid: f5f67c52d1564df4a8936ccd202a3bd8, type: 3}
  m_Name: 
  m_EditorClassIdentifier: 
  m_Material: {fileID: 0}
  m_Color: {r: 0.94509804, g: 0.9254902, b: 0.8745098, a: 1}
  m_RaycastTarget: 1
  m_OnCullStateChanged:
    m_PersistentCalls:
      m_Calls: []
    m_TypeName: UnityEngine.UI.MaskableGraphic+CullStateChangedEvent, UnityEngine.UI,
      Version=1.0.0.0, Culture=neutral, PublicKeyToken=null
  m_FontData:
    m_Font: {fileID: 12800000, guid: 5c425d43bb0df45ca8eb162d5154251e, type: 3}
    m_FontSize: 50
    m_FontStyle: 0
    m_BestFit: 0
    m_MinSize: 10
    m_MaxSize: 50
    m_Alignment: 4
    m_AlignByGeometry: 0
    m_RichText: 1
    m_HorizontalOverflow: 0
    m_VerticalOverflow: 0
    m_LineSpacing: 1
  m_Text: 07:23 AM
--- !u!222 &250648393
CanvasRenderer:
  m_ObjectHideFlags: 0
  m_PrefabParentObject: {fileID: 22204050, guid: f03c960f44680df4c9e2e3db87887819,
    type: 2}
  m_PrefabInternal: {fileID: 982429121}
  m_GameObject: {fileID: 250648390}
--- !u!1 &298383077
GameObject:
  m_ObjectHideFlags: 0
  m_PrefabParentObject: {fileID: 104060, guid: f03c960f44680df4c9e2e3db87887819, type: 2}
  m_PrefabInternal: {fileID: 982429121}
  serializedVersion: 5
  m_Component:
  - component: {fileID: 298383078}
  - component: {fileID: 298383081}
  - component: {fileID: 298383080}
  - component: {fileID: 298383079}
  m_Layer: 5
  m_Name: Panel
  m_TagString: Untagged
  m_Icon: {fileID: 0}
  m_NavMeshLayer: 0
  m_StaticEditorFlags: 0
  m_IsActive: 1
--- !u!224 &298383078
RectTransform:
  m_ObjectHideFlags: 0
  m_PrefabParentObject: {fileID: 22404060, guid: f03c960f44680df4c9e2e3db87887819,
    type: 2}
  m_PrefabInternal: {fileID: 982429121}
  m_GameObject: {fileID: 298383077}
  m_LocalRotation: {x: 0, y: 0, z: 0, w: 1}
  m_LocalPosition: {x: 0, y: 0, z: 0}
  m_LocalScale: {x: 1, y: 1, z: 1}
  m_Children:
  - {fileID: 453511270}
  - {fileID: 149269965}
  - {fileID: 306435672}
  - {fileID: 1922064292}
  - {fileID: 1424541460}
  - {fileID: 1608946382}
  m_Father: {fileID: 1402699120}
  m_RootOrder: 1
  m_LocalEulerAnglesHint: {x: 0, y: 0, z: 0}
  m_AnchorMin: {x: 0.5, y: 0.5}
  m_AnchorMax: {x: 0.5, y: 0.5}
  m_AnchoredPosition: {x: 0, y: 0}
  m_SizeDelta: {x: 1536, y: 2048}
  m_Pivot: {x: 0.5, y: 0.5}
--- !u!114 &298383079
MonoBehaviour:
  m_ObjectHideFlags: 0
  m_PrefabParentObject: {fileID: 11404062, guid: f03c960f44680df4c9e2e3db87887819,
    type: 2}
  m_PrefabInternal: {fileID: 982429121}
  m_GameObject: {fileID: 298383077}
  m_Enabled: 1
  m_EditorHideFlags: 0
  m_Script: {fileID: -1200242548, guid: f5f67c52d1564df4a8936ccd202a3bd8, type: 3}
  m_Name: 
  m_EditorClassIdentifier: 
  m_ShowMaskGraphic: 1
--- !u!114 &298383080
MonoBehaviour:
  m_ObjectHideFlags: 0
  m_PrefabParentObject: {fileID: 11404064, guid: f03c960f44680df4c9e2e3db87887819,
    type: 2}
  m_PrefabInternal: {fileID: 982429121}
  m_GameObject: {fileID: 298383077}
  m_Enabled: 1
  m_EditorHideFlags: 0
  m_Script: {fileID: -765806418, guid: f5f67c52d1564df4a8936ccd202a3bd8, type: 3}
  m_Name: 
  m_EditorClassIdentifier: 
  m_Material: {fileID: 0}
  m_Color: {r: 0.9490196, g: 0.92941177, b: 0.8784314, a: 1}
  m_RaycastTarget: 1
  m_OnCullStateChanged:
    m_PersistentCalls:
      m_Calls: []
    m_TypeName: UnityEngine.UI.MaskableGraphic+CullStateChangedEvent, UnityEngine.UI,
      Version=1.0.0.0, Culture=neutral, PublicKeyToken=null
  m_Sprite: {fileID: 21300000, guid: 7ed1238760b863f4aafde32ab3a6f28c, type: 3}
  m_Type: 1
  m_PreserveAspect: 0
  m_FillCenter: 1
  m_FillMethod: 4
  m_FillAmount: 1
  m_FillClockwise: 1
  m_FillOrigin: 0
--- !u!222 &298383081
CanvasRenderer:
  m_ObjectHideFlags: 0
  m_PrefabParentObject: {fileID: 22204058, guid: f03c960f44680df4c9e2e3db87887819,
    type: 2}
  m_PrefabInternal: {fileID: 982429121}
  m_GameObject: {fileID: 298383077}
--- !u!1 &306435671
GameObject:
  m_ObjectHideFlags: 0
  m_PrefabParentObject: {fileID: 104042, guid: f03c960f44680df4c9e2e3db87887819, type: 2}
  m_PrefabInternal: {fileID: 982429121}
  serializedVersion: 5
  m_Component:
  - component: {fileID: 306435672}
  - component: {fileID: 306435674}
  - component: {fileID: 306435673}
  m_Layer: 5
  m_Name: BottomPanel
  m_TagString: Untagged
  m_Icon: {fileID: 0}
  m_NavMeshLayer: 0
  m_StaticEditorFlags: 0
  m_IsActive: 1
--- !u!224 &306435672
RectTransform:
  m_ObjectHideFlags: 0
  m_PrefabParentObject: {fileID: 22404042, guid: f03c960f44680df4c9e2e3db87887819,
    type: 2}
  m_PrefabInternal: {fileID: 982429121}
  m_GameObject: {fileID: 306435671}
  m_LocalRotation: {x: 0, y: 0, z: 0, w: 1}
  m_LocalPosition: {x: 0, y: 0, z: 0}
  m_LocalScale: {x: 1, y: 1, z: 1}
  m_Children:
  - {fileID: 250648391}
  - {fileID: 2121114224}
  - {fileID: 957642007}
  m_Father: {fileID: 298383078}
  m_RootOrder: 2
  m_LocalEulerAnglesHint: {x: 0, y: 0, z: 0}
  m_AnchorMin: {x: 0.5, y: 0.5}
  m_AnchorMax: {x: 0.5, y: 0.5}
  m_AnchoredPosition: {x: 0, y: -921}
  m_SizeDelta: {x: 1536, y: 206}
  m_Pivot: {x: 0.5, y: 0.5}
--- !u!114 &306435673
MonoBehaviour:
  m_ObjectHideFlags: 0
  m_PrefabParentObject: {fileID: 11404042, guid: f03c960f44680df4c9e2e3db87887819,
    type: 2}
  m_PrefabInternal: {fileID: 982429121}
  m_GameObject: {fileID: 306435671}
  m_Enabled: 1
  m_EditorHideFlags: 0
  m_Script: {fileID: -765806418, guid: f5f67c52d1564df4a8936ccd202a3bd8, type: 3}
  m_Name: 
  m_EditorClassIdentifier: 
  m_Material: {fileID: 0}
  m_Color: {r: 0.36078432, g: 0.36078432, b: 0.36078432, a: 1}
  m_RaycastTarget: 1
  m_OnCullStateChanged:
    m_PersistentCalls:
      m_Calls: []
    m_TypeName: UnityEngine.UI.MaskableGraphic+CullStateChangedEvent, UnityEngine.UI,
      Version=1.0.0.0, Culture=neutral, PublicKeyToken=null
  m_Sprite: {fileID: 21300000, guid: 7ed1238760b863f4aafde32ab3a6f28c, type: 3}
  m_Type: 1
  m_PreserveAspect: 0
  m_FillCenter: 1
  m_FillMethod: 4
  m_FillAmount: 1
  m_FillClockwise: 1
  m_FillOrigin: 0
--- !u!222 &306435674
CanvasRenderer:
  m_ObjectHideFlags: 0
  m_PrefabParentObject: {fileID: 22204042, guid: f03c960f44680df4c9e2e3db87887819,
    type: 2}
  m_PrefabInternal: {fileID: 982429121}
  m_GameObject: {fileID: 306435671}
--- !u!1 &428594853
GameObject:
  m_ObjectHideFlags: 0
  m_PrefabParentObject: {fileID: 104064, guid: f03c960f44680df4c9e2e3db87887819, type: 2}
  m_PrefabInternal: {fileID: 982429121}
  serializedVersion: 5
  m_Component:
  - component: {fileID: 428594854}
  - component: {fileID: 428594856}
  - component: {fileID: 428594855}
  m_Layer: 5
  m_Name: Text
  m_TagString: Untagged
  m_Icon: {fileID: 0}
  m_NavMeshLayer: 0
  m_StaticEditorFlags: 0
  m_IsActive: 1
--- !u!224 &428594854
RectTransform:
  m_ObjectHideFlags: 0
  m_PrefabParentObject: {fileID: 22404064, guid: f03c960f44680df4c9e2e3db87887819,
    type: 2}
  m_PrefabInternal: {fileID: 982429121}
  m_GameObject: {fileID: 428594853}
  m_LocalRotation: {x: 0, y: 0, z: 0, w: 1}
  m_LocalPosition: {x: 0, y: 0, z: 0}
  m_LocalScale: {x: 1, y: 1, z: 1}
  m_Children: []
  m_Father: {fileID: 1922064292}
  m_RootOrder: 0
  m_LocalEulerAnglesHint: {x: 0, y: 0, z: 0}
  m_AnchorMin: {x: 0.5, y: 0.5}
  m_AnchorMax: {x: 0.5, y: 0.5}
  m_AnchoredPosition: {x: 0, y: 0}
  m_SizeDelta: {x: 277, y: 73}
  m_Pivot: {x: 0.5, y: 0.5}
--- !u!114 &428594855
MonoBehaviour:
  m_ObjectHideFlags: 0
  m_PrefabParentObject: {fileID: 11404068, guid: f03c960f44680df4c9e2e3db87887819,
    type: 2}
  m_PrefabInternal: {fileID: 982429121}
  m_GameObject: {fileID: 428594853}
  m_Enabled: 1
  m_EditorHideFlags: 0
  m_Script: {fileID: 708705254, guid: f5f67c52d1564df4a8936ccd202a3bd8, type: 3}
  m_Name: 
  m_EditorClassIdentifier: 
  m_Material: {fileID: 0}
  m_Color: {r: 0.36078432, g: 0.36078432, b: 0.36078432, a: 1}
  m_RaycastTarget: 1
  m_OnCullStateChanged:
    m_PersistentCalls:
      m_Calls: []
    m_TypeName: UnityEngine.UI.MaskableGraphic+CullStateChangedEvent, UnityEngine.UI,
      Version=1.0.0.0, Culture=neutral, PublicKeyToken=null
  m_FontData:
    m_Font: {fileID: 12800000, guid: 7dfc2e1472ac84e1bb749a8a9f934483, type: 3}
    m_FontSize: 35
    m_FontStyle: 0
    m_BestFit: 0
    m_MinSize: 10
    m_MaxSize: 40
    m_Alignment: 4
    m_AlignByGeometry: 0
    m_RichText: 1
    m_HorizontalOverflow: 0
    m_VerticalOverflow: 0
    m_LineSpacing: 1
  m_Text: HOURS
--- !u!222 &428594856
CanvasRenderer:
  m_ObjectHideFlags: 0
  m_PrefabParentObject: {fileID: 22204062, guid: f03c960f44680df4c9e2e3db87887819,
    type: 2}
  m_PrefabInternal: {fileID: 982429121}
  m_GameObject: {fileID: 428594853}
--- !u!1 &453511269
GameObject:
  m_ObjectHideFlags: 0
  m_PrefabParentObject: {fileID: 104070, guid: f03c960f44680df4c9e2e3db87887819, type: 2}
  m_PrefabInternal: {fileID: 982429121}
  serializedVersion: 5
  m_Component:
  - component: {fileID: 453511270}
  - component: {fileID: 453511273}
  - component: {fileID: 453511272}
  - component: {fileID: 453511271}
  m_Layer: 5
  m_Name: Button
  m_TagString: Untagged
  m_Icon: {fileID: 0}
  m_NavMeshLayer: 0
  m_StaticEditorFlags: 0
  m_IsActive: 1
--- !u!224 &453511270
RectTransform:
  m_ObjectHideFlags: 0
  m_PrefabParentObject: {fileID: 22404070, guid: f03c960f44680df4c9e2e3db87887819,
    type: 2}
  m_PrefabInternal: {fileID: 982429121}
  m_GameObject: {fileID: 453511269}
  m_LocalRotation: {x: 0, y: 0, z: 0, w: 1}
  m_LocalPosition: {x: 0, y: 0, z: 0}
  m_LocalScale: {x: 1, y: 1, z: 1}
  m_Children: []
  m_Father: {fileID: 298383078}
  m_RootOrder: 0
  m_LocalEulerAnglesHint: {x: 0, y: 0, z: 0}
  m_AnchorMin: {x: 0.5, y: 0.5}
  m_AnchorMax: {x: 0.5, y: 0.5}
  m_AnchoredPosition: {x: -813, y: 787}
  m_SizeDelta: {x: 94, y: 24}
  m_Pivot: {x: 0.5, y: 0.5}
--- !u!114 &453511271
MonoBehaviour:
  m_ObjectHideFlags: 0
  m_PrefabParentObject: {fileID: 11404074, guid: f03c960f44680df4c9e2e3db87887819,
    type: 2}
  m_PrefabInternal: {fileID: 982429121}
  m_GameObject: {fileID: 453511269}
  m_Enabled: 1
  m_EditorHideFlags: 0
  m_Script: {fileID: 1392445389, guid: f5f67c52d1564df4a8936ccd202a3bd8, type: 3}
  m_Name: 
  m_EditorClassIdentifier: 
  m_Navigation:
    m_Mode: 3
    m_SelectOnUp: {fileID: 0}
    m_SelectOnDown: {fileID: 0}
    m_SelectOnLeft: {fileID: 0}
    m_SelectOnRight: {fileID: 0}
  m_Transition: 1
  m_Colors:
    m_NormalColor: {r: 1, g: 1, b: 1, a: 1}
    m_HighlightedColor: {r: 0.9607843, g: 0.9607843, b: 0.9607843, a: 1}
    m_PressedColor: {r: 0.78431374, g: 0.78431374, b: 0.78431374, a: 1}
    m_DisabledColor: {r: 0.78431374, g: 0.78431374, b: 0.78431374, a: 0.5019608}
    m_ColorMultiplier: 1
    m_FadeDuration: 0.1
  m_SpriteState:
    m_HighlightedSprite: {fileID: 0}
    m_PressedSprite: {fileID: 0}
    m_DisabledSprite: {fileID: 0}
  m_AnimationTriggers:
    m_NormalTrigger: Normal
    m_HighlightedTrigger: Highlighted
    m_PressedTrigger: Pressed
    m_DisabledTrigger: Disabled
  m_Interactable: 1
  m_TargetGraphic: {fileID: 453511272}
  m_OnClick:
    m_PersistentCalls:
      m_Calls: []
    m_TypeName: UnityEngine.UI.Button+ButtonClickedEvent, UnityEngine.UI, Version=1.0.0.0,
      Culture=neutral, PublicKeyToken=null
--- !u!114 &453511272
MonoBehaviour:
  m_ObjectHideFlags: 0
  m_PrefabParentObject: {fileID: 11404076, guid: f03c960f44680df4c9e2e3db87887819,
    type: 2}
  m_PrefabInternal: {fileID: 982429121}
  m_GameObject: {fileID: 453511269}
  m_Enabled: 1
  m_EditorHideFlags: 0
  m_Script: {fileID: -765806418, guid: f5f67c52d1564df4a8936ccd202a3bd8, type: 3}
  m_Name: 
  m_EditorClassIdentifier: 
  m_Material: {fileID: 0}
  m_Color: {r: 0.94509804, g: 0.9254902, b: 0.8745098, a: 1}
  m_RaycastTarget: 1
  m_OnCullStateChanged:
    m_PersistentCalls:
      m_Calls: []
    m_TypeName: UnityEngine.UI.MaskableGraphic+CullStateChangedEvent, UnityEngine.UI,
      Version=1.0.0.0, Culture=neutral, PublicKeyToken=null
  m_Sprite: {fileID: 21300000, guid: c115c1e6147bc1442a3f57e1c0d1406e, type: 3}
  m_Type: 0
  m_PreserveAspect: 0
  m_FillCenter: 1
  m_FillMethod: 4
  m_FillAmount: 1
  m_FillClockwise: 1
  m_FillOrigin: 0
--- !u!222 &453511273
CanvasRenderer:
  m_ObjectHideFlags: 0
  m_PrefabParentObject: {fileID: 22204068, guid: f03c960f44680df4c9e2e3db87887819,
    type: 2}
  m_PrefabInternal: {fileID: 982429121}
  m_GameObject: {fileID: 453511269}
--- !u!1 &490040293
GameObject:
  m_ObjectHideFlags: 0
  m_PrefabParentObject: {fileID: 104046, guid: f03c960f44680df4c9e2e3db87887819, type: 2}
  m_PrefabInternal: {fileID: 982429121}
  serializedVersion: 5
  m_Component:
  - component: {fileID: 490040294}
  - component: {fileID: 490040296}
  - component: {fileID: 490040295}
  m_Layer: 5
  m_Name: AppTitle
  m_TagString: Untagged
  m_Icon: {fileID: 0}
  m_NavMeshLayer: 0
  m_StaticEditorFlags: 0
  m_IsActive: 1
--- !u!224 &490040294
RectTransform:
  m_ObjectHideFlags: 0
  m_PrefabParentObject: {fileID: 22404046, guid: f03c960f44680df4c9e2e3db87887819,
    type: 2}
  m_PrefabInternal: {fileID: 982429121}
  m_GameObject: {fileID: 490040293}
  m_LocalRotation: {x: 0, y: 0, z: 0, w: 1}
  m_LocalPosition: {x: 0, y: 0, z: 0}
  m_LocalScale: {x: 1, y: 1, z: 1}
  m_Children: []
  m_Father: {fileID: 949694019}
  m_RootOrder: 0
  m_LocalEulerAnglesHint: {x: 0, y: 0, z: 0}
  m_AnchorMin: {x: 0.5, y: 0.5}
  m_AnchorMax: {x: 0.5, y: 0.5}
  m_AnchoredPosition: {x: -36.5, y: -88}
  m_SizeDelta: {x: 695, y: 67}
  m_Pivot: {x: 0.5, y: 0.5}
--- !u!114 &490040295
MonoBehaviour:
  m_ObjectHideFlags: 0
  m_PrefabParentObject: {fileID: 11404048, guid: f03c960f44680df4c9e2e3db87887819,
    type: 2}
  m_PrefabInternal: {fileID: 982429121}
  m_GameObject: {fileID: 490040293}
  m_Enabled: 1
  m_EditorHideFlags: 0
  m_Script: {fileID: 708705254, guid: f5f67c52d1564df4a8936ccd202a3bd8, type: 3}
  m_Name: 
  m_EditorClassIdentifier: 
  m_Material: {fileID: 0}
  m_Color: {r: 0.85490197, g: 0.85490197, b: 0.85490197, a: 1}
  m_RaycastTarget: 1
  m_OnCullStateChanged:
    m_PersistentCalls:
      m_Calls: []
    m_TypeName: UnityEngine.UI.MaskableGraphic+CullStateChangedEvent, UnityEngine.UI,
      Version=1.0.0.0, Culture=neutral, PublicKeyToken=null
  m_FontData:
    m_Font: {fileID: 12800000, guid: 218956a5c2a6e42d6a60afccf80b002b, type: 3}
    m_FontSize: 40
    m_FontStyle: 0
    m_BestFit: 0
    m_MinSize: 10
    m_MaxSize: 40
    m_Alignment: 0
    m_AlignByGeometry: 0
    m_RichText: 1
    m_HorizontalOverflow: 0
    m_VerticalOverflow: 1
    m_LineSpacing: 1
  m_Text: APP SAMPLE TABLET
--- !u!222 &490040296
CanvasRenderer:
  m_ObjectHideFlags: 0
  m_PrefabParentObject: {fileID: 22204044, guid: f03c960f44680df4c9e2e3db87887819,
    type: 2}
  m_PrefabInternal: {fileID: 982429121}
  m_GameObject: {fileID: 490040293}
--- !u!1 &735506208
GameObject:
  m_ObjectHideFlags: 0
  m_PrefabParentObject: {fileID: 104068, guid: f03c960f44680df4c9e2e3db87887819, type: 2}
  m_PrefabInternal: {fileID: 982429121}
  serializedVersion: 5
  m_Component:
  - component: {fileID: 735506209}
  - component: {fileID: 735506211}
  - component: {fileID: 735506210}
  m_Layer: 5
  m_Name: Image
  m_TagString: Untagged
  m_Icon: {fileID: 0}
  m_NavMeshLayer: 0
  m_StaticEditorFlags: 0
  m_IsActive: 1
--- !u!224 &735506209
RectTransform:
  m_ObjectHideFlags: 0
  m_PrefabParentObject: {fileID: 22404068, guid: f03c960f44680df4c9e2e3db87887819,
    type: 2}
  m_PrefabInternal: {fileID: 982429121}
  m_GameObject: {fileID: 735506208}
  m_LocalRotation: {x: 0, y: 0, z: 0, w: 1}
  m_LocalPosition: {x: 0, y: 0, z: 0}
  m_LocalScale: {x: 1, y: 1, z: 1}
  m_Children: []
  m_Father: {fileID: 957642007}
  m_RootOrder: 0
  m_LocalEulerAnglesHint: {x: 0, y: 0, z: 0}
  m_AnchorMin: {x: 0.5, y: 0.5}
  m_AnchorMax: {x: 0.5, y: 0.5}
  m_AnchoredPosition: {x: 0, y: 0}
  m_SizeDelta: {x: 40.2, y: 40.2}
  m_Pivot: {x: 0.5, y: 0.5}
--- !u!114 &735506210
MonoBehaviour:
  m_ObjectHideFlags: 0
  m_PrefabParentObject: {fileID: 11404072, guid: f03c960f44680df4c9e2e3db87887819,
    type: 2}
  m_PrefabInternal: {fileID: 982429121}
  m_GameObject: {fileID: 735506208}
  m_Enabled: 1
  m_EditorHideFlags: 0
  m_Script: {fileID: -765806418, guid: f5f67c52d1564df4a8936ccd202a3bd8, type: 3}
  m_Name: 
  m_EditorClassIdentifier: 
  m_Material: {fileID: 0}
  m_Color: {r: 0.36078432, g: 0.36078432, b: 0.36078432, a: 1}
  m_RaycastTarget: 1
  m_OnCullStateChanged:
    m_PersistentCalls:
      m_Calls: []
    m_TypeName: UnityEngine.UI.MaskableGraphic+CullStateChangedEvent, UnityEngine.UI,
      Version=1.0.0.0, Culture=neutral, PublicKeyToken=null
  m_Sprite: {fileID: 21300000, guid: 291502478103f274da140dc9d17c64dc, type: 3}
  m_Type: 0
  m_PreserveAspect: 0
  m_FillCenter: 1
  m_FillMethod: 4
  m_FillAmount: 1
  m_FillClockwise: 1
  m_FillOrigin: 0
--- !u!222 &735506211
CanvasRenderer:
  m_ObjectHideFlags: 0
  m_PrefabParentObject: {fileID: 22204066, guid: f03c960f44680df4c9e2e3db87887819,
    type: 2}
  m_PrefabInternal: {fileID: 982429121}
  m_GameObject: {fileID: 735506208}
--- !u!1 &949694018
GameObject:
  m_ObjectHideFlags: 0
  m_PrefabParentObject: {fileID: 104062, guid: f03c960f44680df4c9e2e3db87887819, type: 2}
  m_PrefabInternal: {fileID: 982429121}
  serializedVersion: 5
  m_Component:
  - component: {fileID: 949694019}
  - component: {fileID: 949694021}
  - component: {fileID: 949694020}
  m_Layer: 5
  m_Name: AppTitle
  m_TagString: Untagged
  m_Icon: {fileID: 0}
  m_NavMeshLayer: 0
  m_StaticEditorFlags: 0
  m_IsActive: 1
--- !u!224 &949694019
RectTransform:
  m_ObjectHideFlags: 0
  m_PrefabParentObject: {fileID: 22404062, guid: f03c960f44680df4c9e2e3db87887819,
    type: 2}
  m_PrefabInternal: {fileID: 982429121}
  m_GameObject: {fileID: 949694018}
  m_LocalRotation: {x: 0, y: 0, z: 0, w: 1}
  m_LocalPosition: {x: 0, y: 0, z: 0}
  m_LocalScale: {x: 1, y: 1, z: 1}
  m_Children:
  - {fileID: 490040294}
  m_Father: {fileID: 1402699120}
  m_RootOrder: 0
  m_LocalEulerAnglesHint: {x: 0, y: 0, z: 0}
  m_AnchorMin: {x: 0.5, y: 0.5}
  m_AnchorMax: {x: 0.5, y: 0.5}
  m_AnchoredPosition: {x: -384, y: 1147}
  m_SizeDelta: {x: 768, y: 109}
  m_Pivot: {x: 0.5, y: 0.5}
--- !u!114 &949694020
MonoBehaviour:
  m_ObjectHideFlags: 0
  m_PrefabParentObject: {fileID: 11404066, guid: f03c960f44680df4c9e2e3db87887819,
    type: 2}
  m_PrefabInternal: {fileID: 982429121}
  m_GameObject: {fileID: 949694018}
  m_Enabled: 1
  m_EditorHideFlags: 0
  m_Script: {fileID: 708705254, guid: f5f67c52d1564df4a8936ccd202a3bd8, type: 3}
  m_Name: 
  m_EditorClassIdentifier: 
  m_Material: {fileID: 0}
  m_Color: {r: 0.85490197, g: 0.85490197, b: 0.85490197, a: 1}
  m_RaycastTarget: 1
  m_OnCullStateChanged:
    m_PersistentCalls:
      m_Calls: []
    m_TypeName: UnityEngine.UI.MaskableGraphic+CullStateChangedEvent, UnityEngine.UI,
      Version=1.0.0.0, Culture=neutral, PublicKeyToken=null
  m_FontData:
    m_Font: {fileID: 12800000, guid: 218956a5c2a6e42d6a60afccf80b002b, type: 3}
    m_FontSize: 102
    m_FontStyle: 0
    m_BestFit: 0
    m_MinSize: 10
    m_MaxSize: 102
    m_Alignment: 0
    m_AlignByGeometry: 0
    m_RichText: 1
    m_HorizontalOverflow: 0
    m_VerticalOverflow: 1
    m_LineSpacing: 1
  m_Text: DAY CLOCK
--- !u!222 &949694021
CanvasRenderer:
  m_ObjectHideFlags: 0
  m_PrefabParentObject: {fileID: 22204060, guid: f03c960f44680df4c9e2e3db87887819,
    type: 2}
  m_PrefabInternal: {fileID: 982429121}
  m_GameObject: {fileID: 949694018}
--- !u!1 &957642006
GameObject:
  m_ObjectHideFlags: 0
  m_PrefabParentObject: {fileID: 104066, guid: f03c960f44680df4c9e2e3db87887819, type: 2}
  m_PrefabInternal: {fileID: 982429121}
  serializedVersion: 5
  m_Component:
  - component: {fileID: 957642007}
  - component: {fileID: 957642009}
  - component: {fileID: 957642008}
  m_Layer: 5
  m_Name: Image
  m_TagString: Untagged
  m_Icon: {fileID: 0}
  m_NavMeshLayer: 0
  m_StaticEditorFlags: 0
  m_IsActive: 1
--- !u!224 &957642007
RectTransform:
  m_ObjectHideFlags: 0
  m_PrefabParentObject: {fileID: 22404066, guid: f03c960f44680df4c9e2e3db87887819,
    type: 2}
  m_PrefabInternal: {fileID: 982429121}
  m_GameObject: {fileID: 957642006}
  m_LocalRotation: {x: 0, y: 0, z: 0, w: 1}
  m_LocalPosition: {x: 0, y: 0, z: 0}
  m_LocalScale: {x: 1, y: 1, z: 1}
  m_Children:
  - {fileID: 735506209}
  m_Father: {fileID: 306435672}
  m_RootOrder: 2
  m_LocalEulerAnglesHint: {x: 0, y: 0, z: 0}
  m_AnchorMin: {x: 0.5, y: 0.5}
  m_AnchorMax: {x: 0.5, y: 0.5}
  m_AnchoredPosition: {x: 3.5996, y: 171}
  m_SizeDelta: {x: 63, y: 63}
  m_Pivot: {x: 0.5, y: 0.5}
--- !u!114 &957642008
MonoBehaviour:
  m_ObjectHideFlags: 0
  m_PrefabParentObject: {fileID: 11404070, guid: f03c960f44680df4c9e2e3db87887819,
    type: 2}
  m_PrefabInternal: {fileID: 982429121}
  m_GameObject: {fileID: 957642006}
  m_Enabled: 1
  m_EditorHideFlags: 0
  m_Script: {fileID: -765806418, guid: f5f67c52d1564df4a8936ccd202a3bd8, type: 3}
  m_Name: 
  m_EditorClassIdentifier: 
  m_Material: {fileID: 0}
  m_Color: {r: 0.36078432, g: 0.36078432, b: 0.36078432, a: 1}
  m_RaycastTarget: 1
  m_OnCullStateChanged:
    m_PersistentCalls:
      m_Calls: []
    m_TypeName: UnityEngine.UI.MaskableGraphic+CullStateChangedEvent, UnityEngine.UI,
      Version=1.0.0.0, Culture=neutral, PublicKeyToken=null
  m_Sprite: {fileID: 21300000, guid: 5edfdb1318310614985b8de7ab9b784c, type: 3}
  m_Type: 0
  m_PreserveAspect: 0
  m_FillCenter: 1
  m_FillMethod: 4
  m_FillAmount: 1
  m_FillClockwise: 1
  m_FillOrigin: 0
--- !u!222 &957642009
CanvasRenderer:
  m_ObjectHideFlags: 0
  m_PrefabParentObject: {fileID: 22204064, guid: f03c960f44680df4c9e2e3db87887819,
    type: 2}
  m_PrefabInternal: {fileID: 982429121}
  m_GameObject: {fileID: 957642006}
--- !u!1001 &982429121
Prefab:
  m_ObjectHideFlags: 0
  serializedVersion: 2
  m_Modification:
    m_TransformParent: {fileID: 0}
    m_Modifications:
    - target: {fileID: 22404044, guid: f03c960f44680df4c9e2e3db87887819, type: 2}
      propertyPath: m_LocalPosition.x
      value: 0
      objectReference: {fileID: 0}
    - target: {fileID: 22404044, guid: f03c960f44680df4c9e2e3db87887819, type: 2}
      propertyPath: m_LocalPosition.y
      value: 0
      objectReference: {fileID: 0}
    - target: {fileID: 22404044, guid: f03c960f44680df4c9e2e3db87887819, type: 2}
      propertyPath: m_LocalPosition.z
      value: 0
      objectReference: {fileID: 0}
    - target: {fileID: 22404044, guid: f03c960f44680df4c9e2e3db87887819, type: 2}
      propertyPath: m_LocalRotation.x
      value: 0
      objectReference: {fileID: 0}
    - target: {fileID: 22404044, guid: f03c960f44680df4c9e2e3db87887819, type: 2}
      propertyPath: m_LocalRotation.y
      value: 0
      objectReference: {fileID: 0}
    - target: {fileID: 22404044, guid: f03c960f44680df4c9e2e3db87887819, type: 2}
      propertyPath: m_LocalRotation.z
      value: 0
      objectReference: {fileID: 0}
    - target: {fileID: 22404044, guid: f03c960f44680df4c9e2e3db87887819, type: 2}
      propertyPath: m_LocalRotation.w
      value: 1
      objectReference: {fileID: 0}
    - target: {fileID: 22404044, guid: f03c960f44680df4c9e2e3db87887819, type: 2}
      propertyPath: m_RootOrder
      value: 0
      objectReference: {fileID: 0}
    - target: {fileID: 22404044, guid: f03c960f44680df4c9e2e3db87887819, type: 2}
      propertyPath: m_AnchoredPosition.x
      value: 0
      objectReference: {fileID: 0}
    - target: {fileID: 22404044, guid: f03c960f44680df4c9e2e3db87887819, type: 2}
      propertyPath: m_AnchoredPosition.y
      value: 0
      objectReference: {fileID: 0}
    - target: {fileID: 22404044, guid: f03c960f44680df4c9e2e3db87887819, type: 2}
      propertyPath: m_SizeDelta.x
      value: 0
      objectReference: {fileID: 0}
    - target: {fileID: 22404044, guid: f03c960f44680df4c9e2e3db87887819, type: 2}
      propertyPath: m_SizeDelta.y
      value: 0
      objectReference: {fileID: 0}
    - target: {fileID: 22404044, guid: f03c960f44680df4c9e2e3db87887819, type: 2}
      propertyPath: m_AnchorMin.x
      value: 0
      objectReference: {fileID: 0}
    - target: {fileID: 22404044, guid: f03c960f44680df4c9e2e3db87887819, type: 2}
      propertyPath: m_AnchorMin.y
      value: 0
      objectReference: {fileID: 0}
    - target: {fileID: 22404044, guid: f03c960f44680df4c9e2e3db87887819, type: 2}
      propertyPath: m_AnchorMax.x
      value: 0
      objectReference: {fileID: 0}
    - target: {fileID: 22404044, guid: f03c960f44680df4c9e2e3db87887819, type: 2}
      propertyPath: m_AnchorMax.y
      value: 0
      objectReference: {fileID: 0}
    - target: {fileID: 22404044, guid: f03c960f44680df4c9e2e3db87887819, type: 2}
      propertyPath: m_Pivot.x
      value: 0
      objectReference: {fileID: 0}
    - target: {fileID: 22404044, guid: f03c960f44680df4c9e2e3db87887819, type: 2}
      propertyPath: m_Pivot.y
      value: 0
      objectReference: {fileID: 0}
    m_RemovedComponents: []
  m_ParentPrefab: {fileID: 100100000, guid: f03c960f44680df4c9e2e3db87887819, type: 2}
  m_RootGameObject: {fileID: 1402699116}
  m_IsPrefabParent: 0
--- !u!1 &1033062636
GameObject:
  m_ObjectHideFlags: 0
  m_PrefabParentObject: {fileID: 0}
  m_PrefabInternal: {fileID: 0}
  serializedVersion: 5
  m_Component:
  - component: {fileID: 1033062637}
  m_Layer: 0
  m_Name: __REAL_PIXELS_1536x2048
  m_TagString: Untagged
  m_Icon: {fileID: 0}
  m_NavMeshLayer: 0
  m_StaticEditorFlags: 0
  m_IsActive: 1
--- !u!4 &1033062637
Transform:
  m_ObjectHideFlags: 0
  m_PrefabParentObject: {fileID: 0}
  m_PrefabInternal: {fileID: 0}
  m_GameObject: {fileID: 1033062636}
  m_LocalRotation: {x: 0, y: 0, z: 0, w: 1}
  m_LocalPosition: {x: 494.995, y: 627.74, z: 0}
  m_LocalScale: {x: 1, y: 1, z: 1}
  m_Children: []
  m_Father: {fileID: 0}
  m_RootOrder: 3
  m_LocalEulerAnglesHint: {x: 0, y: 0, z: 0}
--- !u!1 &1402699116
GameObject:
  m_ObjectHideFlags: 0
  m_PrefabParentObject: {fileID: 104044, guid: f03c960f44680df4c9e2e3db87887819, type: 2}
  m_PrefabInternal: {fileID: 982429121}
  serializedVersion: 5
  m_Component:
  - component: {fileID: 1402699120}
  - component: {fileID: 1402699119}
  - component: {fileID: 1402699118}
  - component: {fileID: 1402699117}
  m_Layer: 5
  m_Name: DayClock
  m_TagString: Untagged
  m_Icon: {fileID: 0}
  m_NavMeshLayer: 0
  m_StaticEditorFlags: 0
  m_IsActive: 1
--- !u!114 &1402699117
MonoBehaviour:
  m_ObjectHideFlags: 0
  m_PrefabParentObject: {fileID: 11404044, guid: f03c960f44680df4c9e2e3db87887819,
    type: 2}
  m_PrefabInternal: {fileID: 982429121}
  m_GameObject: {fileID: 1402699116}
  m_Enabled: 1
  m_EditorHideFlags: 0
  m_Script: {fileID: 1301386320, guid: f5f67c52d1564df4a8936ccd202a3bd8, type: 3}
  m_Name: 
  m_EditorClassIdentifier: 
  m_IgnoreReversedGraphics: 1
  m_BlockingObjects: 0
  m_BlockingMask:
    serializedVersion: 2
    m_Bits: 4294967295
--- !u!114 &1402699118
MonoBehaviour:
  m_ObjectHideFlags: 0
  m_PrefabParentObject: {fileID: 11404046, guid: f03c960f44680df4c9e2e3db87887819,
    type: 2}
  m_PrefabInternal: {fileID: 982429121}
  m_GameObject: {fileID: 1402699116}
  m_Enabled: 1
  m_EditorHideFlags: 0
  m_Script: {fileID: 1980459831, guid: f5f67c52d1564df4a8936ccd202a3bd8, type: 3}
  m_Name: 
  m_EditorClassIdentifier: 
  m_UiScaleMode: 1
  m_ReferencePixelsPerUnit: 100
  m_ScaleFactor: 1
  m_ReferenceResolution: {x: 1536, y: 2048}
  m_ScreenMatchMode: 0
  m_MatchWidthOrHeight: 1
  m_PhysicalUnit: 3
  m_FallbackScreenDPI: 96
  m_DefaultSpriteDPI: 96
  m_DynamicPixelsPerUnit: 1
--- !u!223 &1402699119
Canvas:
  m_ObjectHideFlags: 0
  m_PrefabParentObject: {fileID: 22304038, guid: f03c960f44680df4c9e2e3db87887819,
    type: 2}
  m_PrefabInternal: {fileID: 982429121}
  m_GameObject: {fileID: 1402699116}
  m_Enabled: 1
  serializedVersion: 3
  m_RenderMode: 0
  m_Camera: {fileID: 0}
  m_PlaneDistance: 100
  m_PixelPerfect: 1
  m_ReceivesEvents: 1
  m_OverrideSorting: 0
  m_OverridePixelPerfect: 0
  m_SortingBucketNormalizedSize: 0
  m_AdditionalShaderChannelsFlag: 25
  m_SortingLayerID: 0
  m_SortingOrder: 0
  m_TargetDisplay: 0
--- !u!224 &1402699120
RectTransform:
  m_ObjectHideFlags: 0
  m_PrefabParentObject: {fileID: 22404044, guid: f03c960f44680df4c9e2e3db87887819,
    type: 2}
  m_PrefabInternal: {fileID: 982429121}
  m_GameObject: {fileID: 1402699116}
  m_LocalRotation: {x: 0, y: 0, z: 0, w: 1}
  m_LocalPosition: {x: 0, y: 0, z: 0}
  m_LocalScale: {x: 0, y: 0, z: 0}
  m_Children:
  - {fileID: 949694019}
  - {fileID: 298383078}
  m_Father: {fileID: 0}
  m_RootOrder: 0
  m_LocalEulerAnglesHint: {x: 0, y: 0, z: 0}
  m_AnchorMin: {x: 0, y: 0}
  m_AnchorMax: {x: 0, y: 0}
  m_AnchoredPosition: {x: 0, y: 0}
  m_SizeDelta: {x: 0, y: 0}
  m_Pivot: {x: 0, y: 0}
--- !u!1 &1424541459
GameObject:
  m_ObjectHideFlags: 0
  m_PrefabParentObject: {fileID: 104058, guid: f03c960f44680df4c9e2e3db87887819, type: 2}
  m_PrefabInternal: {fileID: 982429121}
  serializedVersion: 5
  m_Component:
  - component: {fileID: 1424541460}
  - component: {fileID: 1424541462}
  - component: {fileID: 1424541461}
  m_Layer: 5
  m_Name: Image
  m_TagString: Untagged
  m_Icon: {fileID: 0}
  m_NavMeshLayer: 0
  m_StaticEditorFlags: 0
  m_IsActive: 1
--- !u!224 &1424541460
RectTransform:
  m_ObjectHideFlags: 0
  m_PrefabParentObject: {fileID: 22404058, guid: f03c960f44680df4c9e2e3db87887819,
    type: 2}
  m_PrefabInternal: {fileID: 982429121}
  m_GameObject: {fileID: 1424541459}
  m_LocalRotation: {x: 0, y: 0, z: 0, w: 1}
  m_LocalPosition: {x: 0, y: 0, z: 0}
  m_LocalScale: {x: 1, y: 1, z: 1}
  m_Children:
  - {fileID: 1552982513}
  m_Father: {fileID: 298383078}
  m_RootOrder: 4
  m_LocalEulerAnglesHint: {x: 0, y: 0, z: 0}
  m_AnchorMin: {x: 0.5, y: 0.5}
  m_AnchorMax: {x: 0.5, y: 0.5}
  m_AnchoredPosition: {x: 0, y: -332}
  m_SizeDelta: {x: 626, y: 67}
  m_Pivot: {x: 0.5, y: 0.5}
--- !u!114 &1424541461
MonoBehaviour:
  m_ObjectHideFlags: 0
  m_PrefabParentObject: {fileID: 11404060, guid: f03c960f44680df4c9e2e3db87887819,
    type: 2}
  m_PrefabInternal: {fileID: 982429121}
  m_GameObject: {fileID: 1424541459}
  m_Enabled: 1
  m_EditorHideFlags: 0
  m_Script: {fileID: -765806418, guid: f5f67c52d1564df4a8936ccd202a3bd8, type: 3}
  m_Name: 
  m_EditorClassIdentifier: 
  m_Material: {fileID: 0}
  m_Color: {r: 0.4, g: 0.72156864, b: 0.87058824, a: 1}
  m_RaycastTarget: 1
  m_OnCullStateChanged:
    m_PersistentCalls:
      m_Calls: []
    m_TypeName: UnityEngine.UI.MaskableGraphic+CullStateChangedEvent, UnityEngine.UI,
      Version=1.0.0.0, Culture=neutral, PublicKeyToken=null
  m_Sprite: {fileID: 21300000, guid: 7ed1238760b863f4aafde32ab3a6f28c, type: 3}
  m_Type: 1
  m_PreserveAspect: 0
  m_FillCenter: 1
  m_FillMethod: 4
  m_FillAmount: 1
  m_FillClockwise: 1
  m_FillOrigin: 0
--- !u!222 &1424541462
CanvasRenderer:
  m_ObjectHideFlags: 0
  m_PrefabParentObject: {fileID: 22204056, guid: f03c960f44680df4c9e2e3db87887819,
    type: 2}
  m_PrefabInternal: {fileID: 982429121}
  m_GameObject: {fileID: 1424541459}
--- !u!1 &1500371475
GameObject:
  m_ObjectHideFlags: 0
  m_PrefabParentObject: {fileID: 0}
  m_PrefabInternal: {fileID: 0}
  serializedVersion: 5
  m_Component:
  - component: {fileID: 1500371479}
  - component: {fileID: 1500371478}
  - component: {fileID: 1500371477}
  - component: {fileID: 1500371476}
  m_Layer: 0
  m_Name: EventSystem
  m_TagString: Untagged
  m_Icon: {fileID: 0}
  m_NavMeshLayer: 0
  m_StaticEditorFlags: 0
  m_IsActive: 1
--- !u!114 &1500371476
MonoBehaviour:
  m_ObjectHideFlags: 0
  m_PrefabParentObject: {fileID: 0}
  m_PrefabInternal: {fileID: 0}
  m_GameObject: {fileID: 1500371475}
  m_Enabled: 1
  m_EditorHideFlags: 0
  m_Script: {fileID: 1997211142, guid: f5f67c52d1564df4a8936ccd202a3bd8, type: 3}
  m_Name: 
  m_EditorClassIdentifier: 
  m_ForceModuleActive: 0
--- !u!114 &1500371477
MonoBehaviour:
  m_ObjectHideFlags: 0
  m_PrefabParentObject: {fileID: 0}
  m_PrefabInternal: {fileID: 0}
  m_GameObject: {fileID: 1500371475}
  m_Enabled: 1
  m_EditorHideFlags: 0
  m_Script: {fileID: 1077351063, guid: f5f67c52d1564df4a8936ccd202a3bd8, type: 3}
  m_Name: 
  m_EditorClassIdentifier: 
  m_HorizontalAxis: Horizontal
  m_VerticalAxis: Vertical
  m_SubmitButton: Submit
  m_CancelButton: Cancel
  m_InputActionsPerSecond: 10
  m_RepeatDelay: 0.5
  m_ForceModuleActive: 0
--- !u!114 &1500371478
MonoBehaviour:
  m_ObjectHideFlags: 0
  m_PrefabParentObject: {fileID: 0}
  m_PrefabInternal: {fileID: 0}
  m_GameObject: {fileID: 1500371475}
  m_Enabled: 1
  m_EditorHideFlags: 0
  m_Script: {fileID: -619905303, guid: f5f67c52d1564df4a8936ccd202a3bd8, type: 3}
  m_Name: 
  m_EditorClassIdentifier: 
  m_FirstSelected: {fileID: 0}
  m_sendNavigationEvents: 1
  m_DragThreshold: 5
--- !u!4 &1500371479
Transform:
  m_ObjectHideFlags: 0
  m_PrefabParentObject: {fileID: 0}
  m_PrefabInternal: {fileID: 0}
  m_GameObject: {fileID: 1500371475}
  m_LocalRotation: {x: 0, y: 0, z: 0, w: 1}
  m_LocalPosition: {x: 0, y: 0, z: 0}
  m_LocalScale: {x: 1, y: 1, z: 1}
  m_Children: []
  m_Father: {fileID: 0}
  m_RootOrder: 1
  m_LocalEulerAnglesHint: {x: 0, y: 0, z: 0}
--- !u!1 &1511305452
GameObject:
  m_ObjectHideFlags: 0
  m_PrefabParentObject: {fileID: 0}
  m_PrefabInternal: {fileID: 0}
  serializedVersion: 5
  m_Component:
  - component: {fileID: 1511305453}
  m_Layer: 0
  m_Name: __SET_YOUR_GAMESCREEN_TO_768x1024
  m_TagString: Untagged
  m_Icon: {fileID: 0}
  m_NavMeshLayer: 0
  m_StaticEditorFlags: 0
  m_IsActive: 1
--- !u!4 &1511305453
Transform:
  m_ObjectHideFlags: 0
  m_PrefabParentObject: {fileID: 0}
  m_PrefabInternal: {fileID: 0}
  m_GameObject: {fileID: 1511305452}
  m_LocalRotation: {x: 0, y: 0, z: 0, w: 1}
  m_LocalPosition: {x: 494.995, y: 627.74, z: 0}
  m_LocalScale: {x: 1, y: 1, z: 1}
  m_Children: []
  m_Father: {fileID: 0}
  m_RootOrder: 2
  m_LocalEulerAnglesHint: {x: 0, y: 0, z: 0}
--- !u!1 &1552982512
GameObject:
  m_ObjectHideFlags: 0
  m_PrefabParentObject: {fileID: 104056, guid: f03c960f44680df4c9e2e3db87887819, type: 2}
  m_PrefabInternal: {fileID: 982429121}
  serializedVersion: 5
  m_Component:
  - component: {fileID: 1552982513}
  - component: {fileID: 1552982515}
  - component: {fileID: 1552982514}
  m_Layer: 5
  m_Name: Text
  m_TagString: Untagged
  m_Icon: {fileID: 0}
  m_NavMeshLayer: 0
  m_StaticEditorFlags: 0
  m_IsActive: 1
--- !u!224 &1552982513
RectTransform:
  m_ObjectHideFlags: 0
  m_PrefabParentObject: {fileID: 22404056, guid: f03c960f44680df4c9e2e3db87887819,
    type: 2}
  m_PrefabInternal: {fileID: 982429121}
  m_GameObject: {fileID: 1552982512}
  m_LocalRotation: {x: 0, y: 0, z: 0, w: 1}
  m_LocalPosition: {x: 0, y: 0, z: 0}
  m_LocalScale: {x: 1, y: 1, z: 1}
  m_Children: []
  m_Father: {fileID: 1424541460}
  m_RootOrder: 0
  m_LocalEulerAnglesHint: {x: 0, y: 0, z: 0}
  m_AnchorMin: {x: 0.5, y: 0.5}
  m_AnchorMax: {x: 0.5, y: 0.5}
  m_AnchoredPosition: {x: 0, y: 0}
  m_SizeDelta: {x: 277, y: 73}
  m_Pivot: {x: 0.5, y: 0.5}
--- !u!114 &1552982514
MonoBehaviour:
  m_ObjectHideFlags: 0
  m_PrefabParentObject: {fileID: 11404058, guid: f03c960f44680df4c9e2e3db87887819,
    type: 2}
  m_PrefabInternal: {fileID: 982429121}
  m_GameObject: {fileID: 1552982512}
  m_Enabled: 1
  m_EditorHideFlags: 0
  m_Script: {fileID: 708705254, guid: f5f67c52d1564df4a8936ccd202a3bd8, type: 3}
  m_Name: 
  m_EditorClassIdentifier: 
  m_Material: {fileID: 0}
  m_Color: {r: 0.36078432, g: 0.36078432, b: 0.36078432, a: 1}
  m_RaycastTarget: 1
  m_OnCullStateChanged:
    m_PersistentCalls:
      m_Calls: []
    m_TypeName: UnityEngine.UI.MaskableGraphic+CullStateChangedEvent, UnityEngine.UI,
      Version=1.0.0.0, Culture=neutral, PublicKeyToken=null
  m_FontData:
    m_Font: {fileID: 12800000, guid: 7dfc2e1472ac84e1bb749a8a9f934483, type: 3}
    m_FontSize: 35
    m_FontStyle: 0
    m_BestFit: 0
    m_MinSize: 10
    m_MaxSize: 40
    m_Alignment: 4
    m_AlignByGeometry: 0
    m_RichText: 1
    m_HorizontalOverflow: 0
    m_VerticalOverflow: 0
    m_LineSpacing: 1
  m_Text: MINUTES
--- !u!222 &1552982515
CanvasRenderer:
  m_ObjectHideFlags: 0
  m_PrefabParentObject: {fileID: 22204054, guid: f03c960f44680df4c9e2e3db87887819,
    type: 2}
  m_PrefabInternal: {fileID: 982429121}
  m_GameObject: {fileID: 1552982512}
--- !u!1 &1608946381
GameObject:
  m_ObjectHideFlags: 0
  m_PrefabParentObject: {fileID: 104038, guid: f03c960f44680df4c9e2e3db87887819, type: 2}
  m_PrefabInternal: {fileID: 982429121}
  serializedVersion: 5
  m_Component:
  - component: {fileID: 1608946382}
  - component: {fileID: 1608946384}
  - component: {fileID: 1608946383}
  m_Layer: 5
  m_Name: Image
  m_TagString: Untagged
  m_Icon: {fileID: 0}
  m_NavMeshLayer: 0
  m_StaticEditorFlags: 0
  m_IsActive: 1
--- !u!224 &1608946382
RectTransform:
  m_ObjectHideFlags: 0
  m_PrefabParentObject: {fileID: 22404038, guid: f03c960f44680df4c9e2e3db87887819,
    type: 2}
  m_PrefabInternal: {fileID: 982429121}
  m_GameObject: {fileID: 1608946381}
  m_LocalRotation: {x: 0, y: 0, z: 0, w: 1}
  m_LocalPosition: {x: 0, y: 0, z: 0}
  m_LocalScale: {x: 1, y: 1, z: 1}
  m_Children:
  - {fileID: 2064041247}
  m_Father: {fileID: 298383078}
  m_RootOrder: 5
  m_LocalEulerAnglesHint: {x: 0, y: 0, z: 0}
  m_AnchorMin: {x: 0.5, y: 0.5}
  m_AnchorMax: {x: 0.5, y: 0.5}
  m_AnchoredPosition: {x: 2, y: -399}
  m_SizeDelta: {x: 325, y: 67}
  m_Pivot: {x: 0.5, y: 0.5}
--- !u!114 &1608946383
MonoBehaviour:
  m_ObjectHideFlags: 0
  m_PrefabParentObject: {fileID: 11404038, guid: f03c960f44680df4c9e2e3db87887819,
    type: 2}
  m_PrefabInternal: {fileID: 982429121}
  m_GameObject: {fileID: 1608946381}
  m_Enabled: 1
  m_EditorHideFlags: 0
  m_Script: {fileID: -765806418, guid: f5f67c52d1564df4a8936ccd202a3bd8, type: 3}
  m_Name: 
  m_EditorClassIdentifier: 
  m_Material: {fileID: 0}
  m_Color: {r: 0.99607843, g: 0.9372549, b: 0.8, a: 1}
  m_RaycastTarget: 1
  m_OnCullStateChanged:
    m_PersistentCalls:
      m_Calls: []
    m_TypeName: UnityEngine.UI.MaskableGraphic+CullStateChangedEvent, UnityEngine.UI,
      Version=1.0.0.0, Culture=neutral, PublicKeyToken=null
  m_Sprite: {fileID: 21300000, guid: 7ed1238760b863f4aafde32ab3a6f28c, type: 3}
  m_Type: 1
  m_PreserveAspect: 0
  m_FillCenter: 1
  m_FillMethod: 4
  m_FillAmount: 1
  m_FillClockwise: 1
  m_FillOrigin: 0
--- !u!222 &1608946384
CanvasRenderer:
  m_ObjectHideFlags: 0
  m_PrefabParentObject: {fileID: 22204038, guid: f03c960f44680df4c9e2e3db87887819,
    type: 2}
  m_PrefabInternal: {fileID: 982429121}
  m_GameObject: {fileID: 1608946381}
--- !u!1 &1922064291
GameObject:
  m_ObjectHideFlags: 0
  m_PrefabParentObject: {fileID: 104050, guid: f03c960f44680df4c9e2e3db87887819, type: 2}
  m_PrefabInternal: {fileID: 982429121}
  serializedVersion: 5
  m_Component:
  - component: {fileID: 1922064292}
  - component: {fileID: 1922064294}
  - component: {fileID: 1922064293}
  m_Layer: 5
  m_Name: Image
  m_TagString: Untagged
  m_Icon: {fileID: 0}
  m_NavMeshLayer: 0
  m_StaticEditorFlags: 0
  m_IsActive: 1
--- !u!224 &1922064292
RectTransform:
  m_ObjectHideFlags: 0
  m_PrefabParentObject: {fileID: 22404050, guid: f03c960f44680df4c9e2e3db87887819,
    type: 2}
  m_PrefabInternal: {fileID: 982429121}
  m_GameObject: {fileID: 1922064291}
  m_LocalRotation: {x: 0, y: 0, z: 0, w: 1}
  m_LocalPosition: {x: 0, y: 0, z: 0}
  m_LocalScale: {x: 1, y: 1, z: 1}
  m_Children:
  - {fileID: 428594854}
  m_Father: {fileID: 298383078}
  m_RootOrder: 3
  m_LocalEulerAnglesHint: {x: 0, y: 0, z: 0}
  m_AnchorMin: {x: 0.5, y: 0.5}
  m_AnchorMax: {x: 0.5, y: 0.5}
  m_AnchoredPosition: {x: 0, y: -265}
  m_SizeDelta: {x: 414, y: 67}
  m_Pivot: {x: 0.5, y: 0.5}
--- !u!114 &1922064293
MonoBehaviour:
  m_ObjectHideFlags: 0
  m_PrefabParentObject: {fileID: 11404052, guid: f03c960f44680df4c9e2e3db87887819,
    type: 2}
  m_PrefabInternal: {fileID: 982429121}
  m_GameObject: {fileID: 1922064291}
  m_Enabled: 1
  m_EditorHideFlags: 0
  m_Script: {fileID: -765806418, guid: f5f67c52d1564df4a8936ccd202a3bd8, type: 3}
  m_Name: 
  m_EditorClassIdentifier: 
  m_Material: {fileID: 0}
  m_Color: {r: 0.9607843, g: 0.3647059, b: 0.39607844, a: 1}
  m_RaycastTarget: 1
  m_OnCullStateChanged:
    m_PersistentCalls:
      m_Calls: []
    m_TypeName: UnityEngine.UI.MaskableGraphic+CullStateChangedEvent, UnityEngine.UI,
      Version=1.0.0.0, Culture=neutral, PublicKeyToken=null
  m_Sprite: {fileID: 21300000, guid: 7ed1238760b863f4aafde32ab3a6f28c, type: 3}
  m_Type: 1
  m_PreserveAspect: 0
  m_FillCenter: 1
  m_FillMethod: 4
  m_FillAmount: 1
  m_FillClockwise: 1
  m_FillOrigin: 0
--- !u!222 &1922064294
CanvasRenderer:
  m_ObjectHideFlags: 0
  m_PrefabParentObject: {fileID: 22204048, guid: f03c960f44680df4c9e2e3db87887819,
    type: 2}
  m_PrefabInternal: {fileID: 982429121}
  m_GameObject: {fileID: 1922064291}
--- !u!1 &2064041246
GameObject:
  m_ObjectHideFlags: 0
  m_PrefabParentObject: {fileID: 104040, guid: f03c960f44680df4c9e2e3db87887819, type: 2}
  m_PrefabInternal: {fileID: 982429121}
  serializedVersion: 5
  m_Component:
  - component: {fileID: 2064041247}
  - component: {fileID: 2064041249}
  - component: {fileID: 2064041248}
  m_Layer: 5
  m_Name: Text
  m_TagString: Untagged
  m_Icon: {fileID: 0}
  m_NavMeshLayer: 0
  m_StaticEditorFlags: 0
  m_IsActive: 1
--- !u!224 &2064041247
RectTransform:
  m_ObjectHideFlags: 0
  m_PrefabParentObject: {fileID: 22404040, guid: f03c960f44680df4c9e2e3db87887819,
    type: 2}
  m_PrefabInternal: {fileID: 982429121}
  m_GameObject: {fileID: 2064041246}
  m_LocalRotation: {x: 0, y: 0, z: 0, w: 1}
  m_LocalPosition: {x: 0, y: 0, z: 0}
  m_LocalScale: {x: 1, y: 1, z: 1}
  m_Children: []
  m_Father: {fileID: 1608946382}
  m_RootOrder: 0
  m_LocalEulerAnglesHint: {x: 0, y: 0, z: 0}
  m_AnchorMin: {x: 0.5, y: 0.5}
  m_AnchorMax: {x: 0.5, y: 0.5}
  m_AnchoredPosition: {x: 0, y: 0}
  m_SizeDelta: {x: 277, y: 73}
  m_Pivot: {x: 0.5, y: 0.5}
--- !u!114 &2064041248
MonoBehaviour:
  m_ObjectHideFlags: 0
  m_PrefabParentObject: {fileID: 11404040, guid: f03c960f44680df4c9e2e3db87887819,
    type: 2}
  m_PrefabInternal: {fileID: 982429121}
  m_GameObject: {fileID: 2064041246}
  m_Enabled: 1
  m_EditorHideFlags: 0
  m_Script: {fileID: 708705254, guid: f5f67c52d1564df4a8936ccd202a3bd8, type: 3}
  m_Name: 
  m_EditorClassIdentifier: 
  m_Material: {fileID: 0}
  m_Color: {r: 0.36078432, g: 0.36078432, b: 0.36078432, a: 1}
  m_RaycastTarget: 1
  m_OnCullStateChanged:
    m_PersistentCalls:
      m_Calls: []
    m_TypeName: UnityEngine.UI.MaskableGraphic+CullStateChangedEvent, UnityEngine.UI,
      Version=1.0.0.0, Culture=neutral, PublicKeyToken=null
  m_FontData:
    m_Font: {fileID: 12800000, guid: 7dfc2e1472ac84e1bb749a8a9f934483, type: 3}
    m_FontSize: 35
    m_FontStyle: 0
    m_BestFit: 0
    m_MinSize: 10
    m_MaxSize: 40
    m_Alignment: 4
    m_AlignByGeometry: 0
    m_RichText: 1
    m_HorizontalOverflow: 0
    m_VerticalOverflow: 0
    m_LineSpacing: 1
  m_Text: SECONDS
--- !u!222 &2064041249
CanvasRenderer:
  m_ObjectHideFlags: 0
  m_PrefabParentObject: {fileID: 22204040, guid: f03c960f44680df4c9e2e3db87887819,
    type: 2}
  m_PrefabInternal: {fileID: 982429121}
  m_GameObject: {fileID: 2064041246}
--- !u!1 &2121114223
GameObject:
  m_ObjectHideFlags: 0
  m_PrefabParentObject: {fileID: 104048, guid: f03c960f44680df4c9e2e3db87887819, type: 2}
  m_PrefabInternal: {fileID: 982429121}
  serializedVersion: 5
  m_Component:
  - component: {fileID: 2121114224}
  - component: {fileID: 2121114226}
  - component: {fileID: 2121114225}
  m_Layer: 5
  m_Name: Text
  m_TagString: Untagged
  m_Icon: {fileID: 0}
  m_NavMeshLayer: 0
  m_StaticEditorFlags: 0
  m_IsActive: 1
--- !u!224 &2121114224
RectTransform:
  m_ObjectHideFlags: 0
  m_PrefabParentObject: {fileID: 22404048, guid: f03c960f44680df4c9e2e3db87887819,
    type: 2}
  m_PrefabInternal: {fileID: 982429121}
  m_GameObject: {fileID: 2121114223}
  m_LocalRotation: {x: 0, y: 0, z: 0, w: 1}
  m_LocalPosition: {x: 0, y: 0, z: 0}
  m_LocalScale: {x: 1, y: 1, z: 1}
  m_Children: []
  m_Father: {fileID: 306435672}
  m_RootOrder: 1
  m_LocalEulerAnglesHint: {x: 0, y: 0, z: 0}
  m_AnchorMin: {x: 0.5, y: 0.5}
  m_AnchorMax: {x: 0.5, y: 0.5}
  m_AnchoredPosition: {x: 3.6, y: 33}
  m_SizeDelta: {x: 213, y: 73}
  m_Pivot: {x: 0.5, y: 0.5}
--- !u!114 &2121114225
MonoBehaviour:
  m_ObjectHideFlags: 0
  m_PrefabParentObject: {fileID: 11404050, guid: f03c960f44680df4c9e2e3db87887819,
    type: 2}
  m_PrefabInternal: {fileID: 982429121}
  m_GameObject: {fileID: 2121114223}
  m_Enabled: 1
  m_EditorHideFlags: 0
  m_Script: {fileID: 708705254, guid: f5f67c52d1564df4a8936ccd202a3bd8, type: 3}
  m_Name: 
  m_EditorClassIdentifier: 
  m_Material: {fileID: 0}
  m_Color: {r: 0.94509804, g: 0.9254902, b: 0.8745098, a: 1}
  m_RaycastTarget: 1
  m_OnCullStateChanged:
    m_PersistentCalls:
      m_Calls: []
    m_TypeName: UnityEngine.UI.MaskableGraphic+CullStateChangedEvent, UnityEngine.UI,
      Version=1.0.0.0, Culture=neutral, PublicKeyToken=null
  m_FontData:
    m_Font: {fileID: 12800000, guid: 7dfc2e1472ac84e1bb749a8a9f934483, type: 3}
    m_FontSize: 50
    m_FontStyle: 0
    m_BestFit: 0
    m_MinSize: 10
    m_MaxSize: 50
    m_Alignment: 4
    m_AlignByGeometry: 0
    m_RichText: 1
    m_HorizontalOverflow: 0
    m_VerticalOverflow: 0
    m_LineSpacing: 1
  m_Text: ALARM
--- !u!222 &2121114226
CanvasRenderer:
  m_ObjectHideFlags: 0
  m_PrefabParentObject: {fileID: 22204046, guid: f03c960f44680df4c9e2e3db87887819,
    type: 2}
  m_PrefabInternal: {fileID: 982429121}
  m_GameObject: {fileID: 2121114223}
